[
    {
        "Id": "0a05c61a8c8735490f000225b21d1e7a0e9b16e1582b6b79c9cb5ee43cea1b04",
        "Created": "2019-09-13T12:35:04.120049988Z",
        "Path": "/usr/bin/openshift-router",
        "Args": [],
        "State": {
            "Status": "running",
            "Running": true,
            "Paused": false,
            "Restarting": false,
            "OOMKilled": false,
            "Dead": false,
            "Pid": 12112,
            "ExitCode": 0,
            "Error": "",
            "StartedAt": "2019-09-13T12:35:05.023771254Z",
            "FinishedAt": "0001-01-01T00:00:00Z"
        },
        "Image": "sha256:eac21e7ca7708f42daaf5e07401ed8c48316702e12f392ed7b61492c9a68de3b",
        "ResolvConfPath": "/var/lib/docker/containers/fc5884738c8731320a23dd86a5022d2511778f0ea4396a56af45a41f4de6d511/resolv.conf",
        "HostnamePath": "/var/lib/docker/containers/fc5884738c8731320a23dd86a5022d2511778f0ea4396a56af45a41f4de6d511/hostname",
        "HostsPath": "/var/lib/origin/openshift.local.volumes/pods/441df597-d0a6-11e9-8d16-5254007ceab8/etc-hosts",
        "LogPath": "/var/lib/docker/containers/0a05c61a8c8735490f000225b21d1e7a0e9b16e1582b6b79c9cb5ee43cea1b04/0a05c61a8c8735490f000225b21d1e7a0e9b16e1582b6b79c9cb5ee43cea1b04-json.log",
        "Name": "/k8s_router_router-1-wrfkk_default_441df597-d0a6-11e9-8d16-5254007ceab8_8",
        "RestartCount": 0,
        "Driver": "overlay2",
        "MountLabel": "system_u:object_r:svirt_sandbox_file_t:s0:c1,c0",
        "ProcessLabel": "system_u:system_r:svirt_lxc_net_t:s0:c1,c0",
        "AppArmorProfile": "",
        "ExecIDs": null,
        "HostConfig": {
            "Binds": [
                "/var/lib/origin/openshift.local.volumes/pods/441df597-d0a6-11e9-8d16-5254007ceab8/volumes/kubernetes.io~secret/metrics-server-certificate:/etc/pki/tls/metrics/:ro,Z",
                "/var/lib/origin/openshift.local.volumes/pods/441df597-d0a6-11e9-8d16-5254007ceab8/volumes/kubernetes.io~secret/server-certificate:/etc/pki/tls/private:ro,Z",
                "/var/lib/origin/openshift.local.volumes/pods/441df597-d0a6-11e9-8d16-5254007ceab8/volumes/kubernetes.io~secret/router-token-sf9fh:/var/run/secrets/kubernetes.io/serviceaccount:ro,Z",
                "/var/lib/origin/openshift.local.volumes/pods/441df597-d0a6-11e9-8d16-5254007ceab8/etc-hosts:/etc/hosts:Z",
                "/var/lib/origin/openshift.local.volumes/pods/441df597-d0a6-11e9-8d16-5254007ceab8/containers/router/3c925be9:/dev/termination-log:Z"
            ],
            "ContainerIDFile": "",
            "LogConfig": {
                "Type": "json-file",
                "Config": {}
            },
            "NetworkMode": "container:fc5884738c8731320a23dd86a5022d2511778f0ea4396a56af45a41f4de6d511",
            "PortBindings": null,
            "RestartPolicy": {
                "Name": "",
                "MaximumRetryCount": 0
            },
            "AutoRemove": false,
            "VolumeDriver": "",
            "VolumesFrom": null,
            "CapAdd": null,
            "CapDrop": [
                "KILL",
                "MKNOD",
                "SETGID",
                "SETUID"
            ],
            "Dns": null,
            "DnsOptions": null,
            "DnsSearch": null,
            "ExtraHosts": null,
            "GroupAdd": [
                "1000000000",
                "1000000000"
            ],
            "IpcMode": "container:fc5884738c8731320a23dd86a5022d2511778f0ea4396a56af45a41f4de6d511",
            "Cgroup": "",
            "Links": null,
            "OomScoreAdj": 968,
            "PidMode": "",
            "Privileged": false,
            "PublishAllPorts": false,
            "ReadonlyRootfs": false,
            "SecurityOpt": [
                "label=level:s0:c1,c0",
                "seccomp=unconfined"
            ],
            "UTSMode": "host",
            "UsernsMode": "",
            "ShmSize": 67108864,
            "Runtime": "docker-runc",
            "ConsoleSize": [
                0,
                0
            ],
            "Isolation": "",
            "CpuShares": 102,
            "Memory": 0,
            "NanoCpus": 0,
            "CgroupParent": "kubepods-burstable-pod441df597_d0a6_11e9_8d16_5254007ceab8.slice",
            "BlkioWeight": 0,
            "BlkioWeightDevice": null,
            "BlkioDeviceReadBps": null,
            "BlkioDeviceWriteBps": null,
            "BlkioDeviceReadIOps": null,
            "BlkioDeviceWriteIOps": null,
            "CpuPeriod": 0,
            "CpuQuota": 0,
            "CpuRealtimePeriod": 0,
            "CpuRealtimeRuntime": 0,
            "CpusetCpus": "",
            "CpusetMems": "",
            "Devices": [],
            "DiskQuota": 0,
            "KernelMemory": 0,
            "MemoryReservation": 0,
            "MemorySwap": 0,
            "MemorySwappiness": -1,
            "OomKillDisable": false,
            "PidsLimit": 0,
            "Ulimits": null,
            "CpuCount": 0,
            "CpuPercent": 0,
            "IOMaximumIOps": 0,
            "IOMaximumBandwidth": 0
        },
        "GraphDriver": {
            "Name": "overlay2",
            "Data": {
                "LowerDir": "/var/lib/docker/overlay2/71ac5f8e7baa6b956ac46a528309424acf4b6dc69f305ab6400b4fe155faba8b-init/diff:/var/lib/docker/overlay2/886a8135ce6ee25c325bf4d7259605aaf2340895250c5b24d00105156b0c1248/diff:/var/lib/docker/overlay2/6cffe7f130916240f7188ac1704e1bf1e2f4d93b5c07e3d90af95e8d28467c28/diff:/var/lib/docker/overlay2/12ce5da3439bb316faaa980130075894632f57a157f1b98383aa1912e7e2a234/diff:/var/lib/docker/overlay2/b7e8bbe497769e2899533ec74cc0b8d2a02cc198c580677315b4865fe7886cbd/diff:/var/lib/docker/overlay2/18397524385bf77fc365e906dbbd9be56089cb1e326932038b26ae40faffa2c8/diff",
                "MergedDir": "/var/lib/docker/overlay2/71ac5f8e7baa6b956ac46a528309424acf4b6dc69f305ab6400b4fe155faba8b/merged",
                "UpperDir": "/var/lib/docker/overlay2/71ac5f8e7baa6b956ac46a528309424acf4b6dc69f305ab6400b4fe155faba8b/diff",
                "WorkDir": "/var/lib/docker/overlay2/71ac5f8e7baa6b956ac46a528309424acf4b6dc69f305ab6400b4fe155faba8b/work"
            }
        },
        "Mounts": [
            {
                "Type": "bind",
                "Source": "/var/lib/origin/openshift.local.volumes/pods/441df597-d0a6-11e9-8d16-5254007ceab8/volumes/kubernetes.io~secret/metrics-server-certificate",
                "Destination": "/etc/pki/tls/metrics",
                "Mode": "ro,Z",
                "RW": false,
                "Propagation": "rprivate"
            },
            {
                "Type": "bind",
                "Source": "/var/lib/origin/openshift.local.volumes/pods/441df597-d0a6-11e9-8d16-5254007ceab8/volumes/kubernetes.io~secret/server-certificate",
                "Destination": "/etc/pki/tls/private",
                "Mode": "ro,Z",
                "RW": false,
                "Propagation": "rprivate"
            },
            {
                "Type": "bind",
                "Source": "/var/lib/origin/openshift.local.volumes/pods/441df597-d0a6-11e9-8d16-5254007ceab8/volumes/kubernetes.io~secret/router-token-sf9fh",
                "Destination": "/var/run/secrets/kubernetes.io/serviceaccount",
                "Mode": "ro,Z",
                "RW": false,
                "Propagation": "rprivate"
            },
            {
                "Type": "bind",
                "Source": "/var/lib/origin/openshift.local.volumes/pods/441df597-d0a6-11e9-8d16-5254007ceab8/etc-hosts",
                "Destination": "/etc/hosts",
                "Mode": "Z",
                "RW": true,
                "Propagation": "rprivate"
            },
            {
                "Type": "bind",
                "Source": "/var/lib/origin/openshift.local.volumes/pods/441df597-d0a6-11e9-8d16-5254007ceab8/containers/router/3c925be9",
                "Destination": "/dev/termination-log",
                "Mode": "Z",
                "RW": true,
                "Propagation": "rprivate"
            }
        ],
        "Config": {
            "Hostname": "node17.lab.local",
            "Domainname": "",
            "User": "1000000000",
            "AttachStdin": false,
            "AttachStdout": false,
            "AttachStderr": false,
            "ExposedPorts": {
                "443/tcp": {},
                "80/tcp": {}
            },
            "Tty": false,
            "OpenStdin": false,
            "StdinOnce": false,
            "Env": [
                "ROUTER_EXTERNAL_HOST_USERNAME=",
                "ROUTER_THREADS=0",
                "ROUTER_METRICS_TLS_CERT_FILE=/etc/pki/tls/metrics/tls.crt",
                "ROUTER_SERVICE_HTTP_PORT=80",
                "ROUTER_SUBDOMAIN=",
                "STATS_PORT=1936",
                "ROUTER_LISTEN_ADDR=0.0.0.0:1936",
                "STATS_PASSWORD=4uvZaSLhmh",
                "ROUTER_EXTERNAL_HOST_HOSTNAME=",
                "ROUTER_EXTERNAL_HOST_HTTP_VSERVER=",
                "ROUTER_EXTERNAL_HOST_PASSWORD=",
                "ROUTER_EXTERNAL_HOST_INSECURE=false",
                "ROUTER_EXTERNAL_HOST_PARTITION_PATH=",
                "ROUTER_METRICS_TYPE=haproxy",
                "ROUTER_SERVICE_NAME=router",
                "ROUTER_SERVICE_NAMESPACE=default",
                "EXTENDED_VALIDATION=true",
                "DEFAULT_CERTIFICATE_DIR=/etc/pki/tls/private",
                "DEFAULT_CERTIFICATE_PATH=/etc/pki/tls/private/tls.crt",
                "ROUTER_EXTERNAL_HOST_HTTPS_VSERVER=",
                "ROUTER_METRICS_TLS_KEY_FILE=/etc/pki/tls/metrics/tls.key",
                "ROUTER_SERVICE_HTTPS_PORT=443",
                "ROUTER_CIPHERS=",
                "ROUTER_EXTERNAL_HOST_VXLAN_GW_CIDR=",
                "STATS_USERNAME=admin",
                "ROUTER_EXTERNAL_HOST_INTERNAL_ADDRESS=",
                "ROUTER_EXTERNAL_HOST_PRIVKEY=/etc/secret-volume/router.pem",
                "KUBERNETES_PORT_53_TCP=tcp://10.49.0.1:53",
                "ROUTER_SERVICE_PORT=80",
                "ROUTER_SERVICE_PORT_80_TCP=80",
                "ROUTER_PORT_80_TCP_ADDR=10.49.243.10",
                "DOCKER_REGISTRY_SERVICE_PORT=5000",
                "KUBERNETES_SERVICE_PORT=443",
                "KUBERNETES_PORT_443_TCP=tcp://10.49.0.1:443",
                "KUBERNETES_PORT_53_UDP_PROTO=udp",
                "REGISTRY_CONSOLE_PORT_9000_TCP=tcp://10.49.217.242:9000",
                "REGISTRY_CONSOLE_PORT_9000_TCP_ADDR=10.49.217.242",
                "ROUTER_PORT_443_TCP=tcp://10.49.243.10:443",
                "ROUTER_PORT_443_TCP_ADDR=10.49.243.10",
                "KUBERNETES_SERVICE_PORT_DNS=53",
                "REGISTRY_CONSOLE_PORT_9000_TCP_PROTO=tcp",
                "ROUTER_PORT=tcp://10.49.243.10:80",
                "ROUTER_PORT_1936_TCP=tcp://10.49.243.10:1936",
                "ROUTER_PORT_1936_TCP_PROTO=tcp",
                "DOCKER_REGISTRY_PORT_5000_TCP_ADDR=10.49.52.222",
                "REGISTRY_CONSOLE_SERVICE_PORT_REGISTRY_CONSOLE=9000",
                "REGISTRY_CONSOLE_SERVICE_PORT=9000",
                "ROUTER_PORT_80_TCP=tcp://10.49.243.10:80",
                "ROUTER_PORT_1936_TCP_PORT=1936",
                "DOCKER_REGISTRY_PORT_5000_TCP=tcp://10.49.52.222:5000",
                "DOCKER_REGISTRY_PORT_5000_TCP_PORT=5000",
                "KUBERNETES_SERVICE_PORT_HTTPS=443",
                "KUBERNETES_PORT_53_TCP_PORT=53",
                "KUBERNETES_PORT_53_TCP_ADDR=10.49.0.1",
                "REGISTRY_CONSOLE_PORT=tcp://10.49.217.242:9000",
                "REGISTRY_CONSOLE_PORT_9000_TCP_PORT=9000",
                "ROUTER_PORT_1936_TCP_ADDR=10.49.243.10",
                "KUBERNETES_PORT_443_TCP_PROTO=tcp",
                "KUBERNETES_PORT_53_UDP=udp://10.49.0.1:53",
                "REGISTRY_CONSOLE_SERVICE_HOST=10.49.217.242",
                "ROUTER_PORT_80_TCP_PROTO=tcp",
                "ROUTER_PORT_443_TCP_PROTO=tcp",
                "DOCKER_REGISTRY_PORT=tcp://10.49.52.222:5000",
                "DOCKER_REGISTRY_PORT_5000_TCP_PROTO=tcp",
                "KUBERNETES_SERVICE_PORT_DNS_TCP=53",
                "ROUTER_PORT_443_TCP_PORT=443",
                "DOCKER_REGISTRY_SERVICE_HOST=10.49.52.222",
                "DOCKER_REGISTRY_SERVICE_PORT_5000_TCP=5000",
                "KUBERNETES_PORT_443_TCP_PORT=443",
                "KUBERNETES_PORT_53_UDP_PORT=53",
                "KUBERNETES_PORT_53_UDP_ADDR=10.49.0.1",
                "KUBERNETES_PORT_53_TCP_PROTO=tcp",
                "ROUTER_SERVICE_HOST=10.49.243.10",
                "ROUTER_SERVICE_PORT_443_TCP=443",
                "ROUTER_SERVICE_PORT_1936_TCP=1936",
                "ROUTER_PORT_80_TCP_PORT=80",
                "KUBERNETES_SERVICE_HOST=10.49.0.1",
                "KUBERNETES_PORT=tcp://10.49.0.1:443",
                "KUBERNETES_PORT_443_TCP_ADDR=10.49.0.1",
                "TEMPLATE_FILE=/var/lib/haproxy/conf/haproxy-config.template",
                "RELOAD_SCRIPT=/var/lib/haproxy/reload-haproxy",
                "OPENSHIFT_BUILD_NAME=haproxy-router",
                "OPENSHIFT_BUILD_NAMESPACE=ci-op-inv30b76",
                "PATH=/usr/local/sbin:/usr/local/bin:/usr/sbin:/usr/bin:/sbin:/bin"
            ],
            "Cmd": null,
            "Healthcheck": {
                "Test": [
                    "NONE"
                ]
            },
            "ArgsEscaped": true,
            "Image": "sha256:eac21e7ca7708f42daaf5e07401ed8c48316702e12f392ed7b61492c9a68de3b",
            "Volumes": null,
            "WorkingDir": "/var/lib/haproxy/conf",
            "Entrypoint": [
                "/usr/bin/openshift-router"
            ],
            "OnBuild": null,
            "Labels": {
                "annotation.io.kubernetes.container.hash": "2a47db6d",
                "annotation.io.kubernetes.container.ports": "[{\"hostPort\":80,\"containerPort\":80,\"protocol\":\"TCP\"},{\"hostPort\":443,\"containerPort\":443,\"protocol\":\"TCP\"},{\"name\":\"stats\",\"hostPort\":1936,\"containerPort\":1936,\"protocol\":\"TCP\"}]",
                "annotation.io.kubernetes.container.restartCount": "8",
                "annotation.io.kubernetes.container.terminationMessagePath": "/dev/termination-log",
                "annotation.io.kubernetes.container.terminationMessagePolicy": "File",
                "annotation.io.kubernetes.pod.terminationGracePeriod": "30",
                "io.k8s.description": "This is a component of OpenShift Origin and contains an HAProxy instance that automatically exposes services within the cluster through routes, and offers TLS termination, reencryption, or SNI-passthrough on ports 80 and 443.",
                "io.k8s.display-name": "OpenShift Origin HAProxy Router",
                "io.kubernetes.container.logpath": "/var/log/pods/441df597-d0a6-11e9-8d16-5254007ceab8/router/8.log",
                "io.kubernetes.container.name": "router",
                "io.kubernetes.docker.type": "container",
                "io.kubernetes.pod.name": "router-1-wrfkk",
                "io.kubernetes.pod.namespace": "default",
                "io.kubernetes.pod.uid": "441df597-d0a6-11e9-8d16-5254007ceab8",
                "io.kubernetes.sandbox.id": "fc5884738c8731320a23dd86a5022d2511778f0ea4396a56af45a41f4de6d511",
                "io.openshift.build.commit.author": "",
                "io.openshift.build.commit.date": "",
                "io.openshift.build.commit.id": "84376c867d366a42e0e5be8efae89dbe64130e44",
                "io.openshift.build.commit.message": "",
                "io.openshift.build.commit.ref": "release-3.11",
                "io.openshift.build.name": "",
                "io.openshift.build.namespace": "",
                "io.openshift.build.source-context-dir": "images/router/haproxy/",
                "io.openshift.build.source-location": "https://github.com/openshift/origin",
                "io.openshift.tags": "openshift,router,haproxy",
                "org.label-schema.build-date": "20190801",
                "org.label-schema.license": "GPLv2",
                "org.label-schema.name": "CentOS Base Image",
                "org.label-schema.schema-version": "1.0",
                "org.label-schema.vendor": "CentOS",
                "vcs-ref": "84376c867d366a42e0e5be8efae89dbe64130e44",
                "vcs-type": "git",
                "vcs-url": "https://github.com/openshift/origin"
            }
        },
        "NetworkSettings": {
            "Bridge": "",
            "SandboxID": "",
            "HairpinMode": false,
            "LinkLocalIPv6Address": "",
            "LinkLocalIPv6PrefixLen": 0,
            "Ports": null,
            "SandboxKey": "",
            "SecondaryIPAddresses": null,
            "SecondaryIPv6Addresses": null,
            "EndpointID": "",
            "Gateway": "",
            "GlobalIPv6Address": "",
            "GlobalIPv6PrefixLen": 0,
            "IPAddress": "",
            "IPPrefixLen": 0,
            "IPv6Gateway": "",
            "MacAddress": "",
            "Networks": {}
        }
    }
]

