NAME                    READY     STATUS    RESTARTS   AGE       IP            NODE               NOMINATED NODE
nginx-example-1-9mxxl   1/1       Running   0          1m        10.48.22.19   node22.lab.local   <none>
nginx-example-1-g7sgr   1/1       Running   0          1m        10.48.21.23   node21.lab.local   <none>
nginx-example-1-zc4dj   1/1       Running   0          1m        10.48.23.14   node23.lab.local   <none>
