24,25d23
< cookie=0x0, table=20, priority=100,arp,in_port=5,arp_spa=10.48.23.6,arp_sha=00:00:0a:30:17:06/00:00:ff:ff:ff:ff actions=load:0x3e2d21->NXM_NX_REG0[],goto_table:21
< cookie=0x0, table=20, priority=100,ip,in_port=5,nw_src=10.48.23.6 actions=load:0x3e2d21->NXM_NX_REG0[],goto_table:21
29d26
< cookie=0x0, table=25, priority=100,ip,nw_src=10.48.23.6 actions=load:0x3e2d21->NXM_NX_REG0[],goto_table:30
43d39
< cookie=0x0, table=40, priority=100,arp,arp_tpa=10.48.23.6 actions=output:5
54d49
< cookie=0x0, table=70, priority=100,ip,nw_dst=10.48.23.6 actions=load:0x3e2d21->NXM_NX_REG1[],load:0x5->NXM_NX_REG2[],goto_table:80
