2c2
< # Generated by iptables-save v1.4.21 on Thu Sep 12 09:46:05 2019
---
> # Generated by iptables-save v1.4.21 on Thu Sep 12 09:40:48 2019
6c6
< :OUTPUT ACCEPT [7650:2451251]
---
> :OUTPUT ACCEPT [7973:2601805]
64c64
< # Generated by iptables-save v1.4.21 on Thu Sep 12 09:46:05 2019
---
> # Generated by iptables-save v1.4.21 on Thu Sep 12 09:40:48 2019
66,69c66,69
< :PREROUTING ACCEPT [41:2236]
< :INPUT ACCEPT [13:1116]
< :OUTPUT ACCEPT [231:14944]
< :POSTROUTING ACCEPT [232:15004]
---
> :PREROUTING ACCEPT [42:2338]
> :INPUT ACCEPT [14:1218]
> :OUTPUT ACCEPT [229:14890]
> :POSTROUTING ACCEPT [230:14950]
93d92
< :KUBE-SEP-QW5ULNFF6RCH56CZ - [0:0]
158,159d156
< -A KUBE-SEP-QW5ULNFF6RCH56CZ -s 10.48.24.5/32 -m comment --comment "webapp/nginx-example:web" -j KUBE-MARK-MASQ
< -A KUBE-SEP-QW5ULNFF6RCH56CZ -p tcp -m comment --comment "webapp/nginx-example:web" -m tcp -j DNAT --to-destination 10.48.24.5:8080
172,175d168
< -A KUBE-SERVICES ! -s 10.48.0.0/16 -d 10.49.243.10/32 -p tcp -m comment --comment "default/router:80-tcp cluster IP" -m tcp --dport 80 -j KUBE-MARK-MASQ
< -A KUBE-SERVICES -d 10.49.243.10/32 -p tcp -m comment --comment "default/router:80-tcp cluster IP" -m tcp --dport 80 -j KUBE-SVC-GQKZAHCS5DTMHUQ6
< -A KUBE-SERVICES ! -s 10.48.0.0/16 -d 10.49.243.10/32 -p tcp -m comment --comment "default/router:443-tcp cluster IP" -m tcp --dport 443 -j KUBE-MARK-MASQ
< -A KUBE-SERVICES -d 10.49.243.10/32 -p tcp -m comment --comment "default/router:443-tcp cluster IP" -m tcp --dport 443 -j KUBE-SVC-IKV43KYNCXS2W7KZ
180,181c173,176
< -A KUBE-SERVICES ! -s 10.48.0.0/16 -d 10.49.196.27/32 -p tcp -m comment --comment "openshift-template-service-broker/apiserver: cluster IP" -m tcp --dport 443 -j KUBE-MARK-MASQ
< -A KUBE-SERVICES -d 10.49.196.27/32 -p tcp -m comment --comment "openshift-template-service-broker/apiserver: cluster IP" -m tcp --dport 443 -j KUBE-SVC-45FDQWGIHPUKH23I
---
> -A KUBE-SERVICES ! -s 10.48.0.0/16 -d 10.49.243.10/32 -p tcp -m comment --comment "default/router:80-tcp cluster IP" -m tcp --dport 80 -j KUBE-MARK-MASQ
> -A KUBE-SERVICES -d 10.49.243.10/32 -p tcp -m comment --comment "default/router:80-tcp cluster IP" -m tcp --dport 80 -j KUBE-SVC-GQKZAHCS5DTMHUQ6
> -A KUBE-SERVICES ! -s 10.48.0.0/16 -d 10.49.243.10/32 -p tcp -m comment --comment "default/router:443-tcp cluster IP" -m tcp --dport 443 -j KUBE-MARK-MASQ
> -A KUBE-SERVICES -d 10.49.243.10/32 -p tcp -m comment --comment "default/router:443-tcp cluster IP" -m tcp --dport 443 -j KUBE-SVC-IKV43KYNCXS2W7KZ
189,192c184,185
< -A KUBE-SERVICES ! -s 10.48.0.0/16 -d 10.49.63.247/32 -p tcp -m comment --comment "kube-service-catalog/apiserver:secure cluster IP" -m tcp --dport 443 -j KUBE-MARK-MASQ
< -A KUBE-SERVICES -d 10.49.63.247/32 -p tcp -m comment --comment "kube-service-catalog/apiserver:secure cluster IP" -m tcp --dport 443 -j KUBE-SVC-52XAELSJYS7XYM5B
< -A KUBE-SERVICES ! -s 10.48.0.0/16 -d 10.49.52.222/32 -p tcp -m comment --comment "default/docker-registry:5000-tcp cluster IP" -m tcp --dport 5000 -j KUBE-MARK-MASQ
< -A KUBE-SERVICES -d 10.49.52.222/32 -p tcp -m comment --comment "default/docker-registry:5000-tcp cluster IP" -m tcp --dport 5000 -j KUBE-SVC-ECTPRXTXBM34L34Q
---
> -A KUBE-SERVICES ! -s 10.48.0.0/16 -d 10.49.196.27/32 -p tcp -m comment --comment "openshift-template-service-broker/apiserver: cluster IP" -m tcp --dport 443 -j KUBE-MARK-MASQ
> -A KUBE-SERVICES -d 10.49.196.27/32 -p tcp -m comment --comment "openshift-template-service-broker/apiserver: cluster IP" -m tcp --dport 443 -j KUBE-SVC-45FDQWGIHPUKH23I
196a190,193
> -A KUBE-SERVICES ! -s 10.48.0.0/16 -d 10.49.63.247/32 -p tcp -m comment --comment "kube-service-catalog/apiserver:secure cluster IP" -m tcp --dport 443 -j KUBE-MARK-MASQ
> -A KUBE-SERVICES -d 10.49.63.247/32 -p tcp -m comment --comment "kube-service-catalog/apiserver:secure cluster IP" -m tcp --dport 443 -j KUBE-SVC-52XAELSJYS7XYM5B
> -A KUBE-SERVICES ! -s 10.48.0.0/16 -d 10.49.52.222/32 -p tcp -m comment --comment "default/docker-registry:5000-tcp cluster IP" -m tcp --dport 5000 -j KUBE-MARK-MASQ
> -A KUBE-SERVICES -d 10.49.52.222/32 -p tcp -m comment --comment "default/docker-registry:5000-tcp cluster IP" -m tcp --dport 5000 -j KUBE-SVC-ECTPRXTXBM34L34Q
214,216c211,212
< -A KUBE-SVC-QXDKH6JV64H73ZVF -m comment --comment "webapp/nginx-example:web" -m statistic --mode random --probability 0.33332999982 -j KUBE-SEP-H5X7FQ26O4SFDOOU
< -A KUBE-SVC-QXDKH6JV64H73ZVF -m comment --comment "webapp/nginx-example:web" -m statistic --mode random --probability 0.50000000000 -j KUBE-SEP-QPOJLESMI7J64X2B
< -A KUBE-SVC-QXDKH6JV64H73ZVF -m comment --comment "webapp/nginx-example:web" -j KUBE-SEP-QW5ULNFF6RCH56CZ
---
> -A KUBE-SVC-QXDKH6JV64H73ZVF -m comment --comment "webapp/nginx-example:web" -m statistic --mode random --probability 0.50000000000 -j KUBE-SEP-H5X7FQ26O4SFDOOU
> -A KUBE-SVC-QXDKH6JV64H73ZVF -m comment --comment "webapp/nginx-example:web" -j KUBE-SEP-QPOJLESMI7J64X2B
