2c2
< # Generated by iptables-save v1.4.21 on Thu Sep 12 09:46:17 2019
---
> # Generated by iptables-save v1.4.21 on Thu Sep 12 09:40:59 2019
6c6
< :OUTPUT ACCEPT [60:5492]
---
> :OUTPUT ACCEPT [63:5716]
58c58
< # Generated by iptables-save v1.4.21 on Thu Sep 12 09:46:17 2019
---
> # Generated by iptables-save v1.4.21 on Thu Sep 12 09:40:59 2019
87d86
< :KUBE-SEP-QW5ULNFF6RCH56CZ - [0:0]
152,153d150
< -A KUBE-SEP-QW5ULNFF6RCH56CZ -s 10.48.24.5/32 -m comment --comment "webapp/nginx-example:web" -j KUBE-MARK-MASQ
< -A KUBE-SEP-QW5ULNFF6RCH56CZ -p tcp -m comment --comment "webapp/nginx-example:web" -m tcp -j DNAT --to-destination 10.48.24.5:8080
162,173d158
< -A KUBE-SERVICES ! -s 10.48.0.0/16 -d 10.49.52.222/32 -p tcp -m comment --comment "default/docker-registry:5000-tcp cluster IP" -m tcp --dport 5000 -j KUBE-MARK-MASQ
< -A KUBE-SERVICES -d 10.49.52.222/32 -p tcp -m comment --comment "default/docker-registry:5000-tcp cluster IP" -m tcp --dport 5000 -j KUBE-SVC-ECTPRXTXBM34L34Q
< -A KUBE-SERVICES ! -s 10.48.0.0/16 -d 10.49.0.1/32 -p udp -m comment --comment "default/kubernetes:dns cluster IP" -m udp --dport 53 -j KUBE-MARK-MASQ
< -A KUBE-SERVICES -d 10.49.0.1/32 -p udp -m comment --comment "default/kubernetes:dns cluster IP" -m udp --dport 53 -j KUBE-SVC-3VQ6B3MLH7E2SZT4
< -A KUBE-SERVICES ! -s 10.48.0.0/16 -d 10.49.196.27/32 -p tcp -m comment --comment "openshift-template-service-broker/apiserver: cluster IP" -m tcp --dport 443 -j KUBE-MARK-MASQ
< -A KUBE-SERVICES -d 10.49.196.27/32 -p tcp -m comment --comment "openshift-template-service-broker/apiserver: cluster IP" -m tcp --dport 443 -j KUBE-SVC-45FDQWGIHPUKH23I
< -A KUBE-SERVICES ! -s 10.48.0.0/16 -d 10.49.217.242/32 -p tcp -m comment --comment "default/registry-console:registry-console cluster IP" -m tcp --dport 9000 -j KUBE-MARK-MASQ
< -A KUBE-SERVICES -d 10.49.217.242/32 -p tcp -m comment --comment "default/registry-console:registry-console cluster IP" -m tcp --dport 9000 -j KUBE-SVC-DEGCXZMVXZMJS2KL
< -A KUBE-SERVICES ! -s 10.48.0.0/16 -d 10.49.63.247/32 -p tcp -m comment --comment "kube-service-catalog/apiserver:secure cluster IP" -m tcp --dport 443 -j KUBE-MARK-MASQ
< -A KUBE-SERVICES -d 10.49.63.247/32 -p tcp -m comment --comment "kube-service-catalog/apiserver:secure cluster IP" -m tcp --dport 443 -j KUBE-SVC-52XAELSJYS7XYM5B
< -A KUBE-SERVICES ! -s 10.48.0.0/16 -d 10.49.243.10/32 -p tcp -m comment --comment "default/router:1936-tcp cluster IP" -m tcp --dport 1936 -j KUBE-MARK-MASQ
< -A KUBE-SERVICES -d 10.49.243.10/32 -p tcp -m comment --comment "default/router:1936-tcp cluster IP" -m tcp --dport 1936 -j KUBE-SVC-4JCRTMMYZAAYMIJ2
176,177d160
< -A KUBE-SERVICES ! -s 10.48.0.0/16 -d 10.49.170.41/32 -p tcp -m comment --comment "openshift-console/console:https cluster IP" -m tcp --dport 443 -j KUBE-MARK-MASQ
< -A KUBE-SERVICES -d 10.49.170.41/32 -p tcp -m comment --comment "openshift-console/console:https cluster IP" -m tcp --dport 443 -j KUBE-SVC-2O3SXCDVWWS7KYC5
182,183c165,166
< -A KUBE-SERVICES ! -s 10.48.0.0/16 -d 10.49.243.10/32 -p tcp -m comment --comment "default/router:80-tcp cluster IP" -m tcp --dport 80 -j KUBE-MARK-MASQ
< -A KUBE-SERVICES -d 10.49.243.10/32 -p tcp -m comment --comment "default/router:80-tcp cluster IP" -m tcp --dport 80 -j KUBE-SVC-GQKZAHCS5DTMHUQ6
---
> -A KUBE-SERVICES ! -s 10.48.0.0/16 -d 10.49.170.41/32 -p tcp -m comment --comment "openshift-console/console:https cluster IP" -m tcp --dport 443 -j KUBE-MARK-MASQ
> -A KUBE-SERVICES -d 10.49.170.41/32 -p tcp -m comment --comment "openshift-console/console:https cluster IP" -m tcp --dport 443 -j KUBE-SVC-2O3SXCDVWWS7KYC5
190a174,187
> -A KUBE-SERVICES ! -s 10.48.0.0/16 -d 10.49.243.10/32 -p tcp -m comment --comment "default/router:80-tcp cluster IP" -m tcp --dport 80 -j KUBE-MARK-MASQ
> -A KUBE-SERVICES -d 10.49.243.10/32 -p tcp -m comment --comment "default/router:80-tcp cluster IP" -m tcp --dport 80 -j KUBE-SVC-GQKZAHCS5DTMHUQ6
> -A KUBE-SERVICES ! -s 10.48.0.0/16 -d 10.49.63.247/32 -p tcp -m comment --comment "kube-service-catalog/apiserver:secure cluster IP" -m tcp --dport 443 -j KUBE-MARK-MASQ
> -A KUBE-SERVICES -d 10.49.63.247/32 -p tcp -m comment --comment "kube-service-catalog/apiserver:secure cluster IP" -m tcp --dport 443 -j KUBE-SVC-52XAELSJYS7XYM5B
> -A KUBE-SERVICES ! -s 10.48.0.0/16 -d 10.49.243.10/32 -p tcp -m comment --comment "default/router:1936-tcp cluster IP" -m tcp --dport 1936 -j KUBE-MARK-MASQ
> -A KUBE-SERVICES -d 10.49.243.10/32 -p tcp -m comment --comment "default/router:1936-tcp cluster IP" -m tcp --dport 1936 -j KUBE-SVC-4JCRTMMYZAAYMIJ2
> -A KUBE-SERVICES ! -s 10.48.0.0/16 -d 10.49.52.222/32 -p tcp -m comment --comment "default/docker-registry:5000-tcp cluster IP" -m tcp --dport 5000 -j KUBE-MARK-MASQ
> -A KUBE-SERVICES -d 10.49.52.222/32 -p tcp -m comment --comment "default/docker-registry:5000-tcp cluster IP" -m tcp --dport 5000 -j KUBE-SVC-ECTPRXTXBM34L34Q
> -A KUBE-SERVICES ! -s 10.48.0.0/16 -d 10.49.0.1/32 -p udp -m comment --comment "default/kubernetes:dns cluster IP" -m udp --dport 53 -j KUBE-MARK-MASQ
> -A KUBE-SERVICES -d 10.49.0.1/32 -p udp -m comment --comment "default/kubernetes:dns cluster IP" -m udp --dport 53 -j KUBE-SVC-3VQ6B3MLH7E2SZT4
> -A KUBE-SERVICES ! -s 10.48.0.0/16 -d 10.49.196.27/32 -p tcp -m comment --comment "openshift-template-service-broker/apiserver: cluster IP" -m tcp --dport 443 -j KUBE-MARK-MASQ
> -A KUBE-SERVICES -d 10.49.196.27/32 -p tcp -m comment --comment "openshift-template-service-broker/apiserver: cluster IP" -m tcp --dport 443 -j KUBE-SVC-45FDQWGIHPUKH23I
> -A KUBE-SERVICES ! -s 10.48.0.0/16 -d 10.49.217.242/32 -p tcp -m comment --comment "default/registry-console:registry-console cluster IP" -m tcp --dport 9000 -j KUBE-MARK-MASQ
> -A KUBE-SERVICES -d 10.49.217.242/32 -p tcp -m comment --comment "default/registry-console:registry-console cluster IP" -m tcp --dport 9000 -j KUBE-SVC-DEGCXZMVXZMJS2KL
208,210c205,206
< -A KUBE-SVC-QXDKH6JV64H73ZVF -m comment --comment "webapp/nginx-example:web" -m statistic --mode random --probability 0.33332999982 -j KUBE-SEP-H5X7FQ26O4SFDOOU
< -A KUBE-SVC-QXDKH6JV64H73ZVF -m comment --comment "webapp/nginx-example:web" -m statistic --mode random --probability 0.50000000000 -j KUBE-SEP-QPOJLESMI7J64X2B
< -A KUBE-SVC-QXDKH6JV64H73ZVF -m comment --comment "webapp/nginx-example:web" -j KUBE-SEP-QW5ULNFF6RCH56CZ
---
> -A KUBE-SVC-QXDKH6JV64H73ZVF -m comment --comment "webapp/nginx-example:web" -m statistic --mode random --probability 0.50000000000 -j KUBE-SEP-H5X7FQ26O4SFDOOU
> -A KUBE-SVC-QXDKH6JV64H73ZVF -m comment --comment "webapp/nginx-example:web" -j KUBE-SEP-QPOJLESMI7J64X2B
