2c2
< # Generated by iptables-save v1.4.21 on Wed Sep 18 08:35:18 2019
---
> # Generated by iptables-save v1.4.21 on Wed Sep 18 08:29:06 2019
6c6
< :OUTPUT ACCEPT [169:17125]
---
> :OUTPUT ACCEPT [58:4866]
45d44
< -A KUBE-SERVICES -d 10.49.196.27/32 -p tcp -m comment --comment "openshift-template-service-broker/apiserver: has no endpoints" -m tcp --dport 443 -j REJECT --reject-with icmp-port-unreachable
46a46
> -A KUBE-SERVICES -d 10.49.196.27/32 -p tcp -m comment --comment "openshift-template-service-broker/apiserver: has no endpoints" -m tcp --dport 443 -j REJECT --reject-with icmp-port-unreachable
60c60
< # Generated by iptables-save v1.4.21 on Wed Sep 18 08:35:18 2019
---
> # Generated by iptables-save v1.4.21 on Wed Sep 18 08:29:06 2019
62,65c62,65
< :PREROUTING ACCEPT [23:2216]
< :INPUT ACCEPT [23:2216]
< :OUTPUT ACCEPT [18:1616]
< :POSTROUTING ACCEPT [18:1616]
---
> :PREROUTING ACCEPT [0:0]
> :INPUT ACCEPT [0:0]
> :OUTPUT ACCEPT [2:120]
> :POSTROUTING ACCEPT [2:120]
76,78d75
< :KUBE-SEP-5IC7UQEZWKI27EZG - [0:0]
< :KUBE-SEP-74PAZBA2CEDRF737 - [0:0]
< :KUBE-SEP-A3FPCBMX64CTFHWT - [0:0]
105d101
< :KUBE-SVC-OVPIOQYLPH3A6XTA - [0:0]
126,131d121
< -A KUBE-SEP-5IC7UQEZWKI27EZG -s 10.48.22.19/32 -m comment --comment "webapp/nginx-example:" -j KUBE-MARK-MASQ
< -A KUBE-SEP-5IC7UQEZWKI27EZG -p tcp -m comment --comment "webapp/nginx-example:" -m tcp -j DNAT --to-destination 10.48.22.19:8080
< -A KUBE-SEP-74PAZBA2CEDRF737 -s 10.48.23.14/32 -m comment --comment "webapp/nginx-example:" -j KUBE-MARK-MASQ
< -A KUBE-SEP-74PAZBA2CEDRF737 -p tcp -m comment --comment "webapp/nginx-example:" -m tcp -j DNAT --to-destination 10.48.23.14:8080
< -A KUBE-SEP-A3FPCBMX64CTFHWT -s 10.48.21.23/32 -m comment --comment "webapp/nginx-example:" -j KUBE-MARK-MASQ
< -A KUBE-SEP-A3FPCBMX64CTFHWT -p tcp -m comment --comment "webapp/nginx-example:" -m tcp -j DNAT --to-destination 10.48.21.23:8080
160,171d149
< -A KUBE-SERVICES ! -s 10.48.0.0/16 -d 10.49.217.242/32 -p tcp -m comment --comment "default/registry-console:registry-console cluster IP" -m tcp --dport 9000 -j KUBE-MARK-MASQ
< -A KUBE-SERVICES -d 10.49.217.242/32 -p tcp -m comment --comment "default/registry-console:registry-console cluster IP" -m tcp --dport 9000 -j KUBE-SVC-DEGCXZMVXZMJS2KL
< -A KUBE-SERVICES ! -s 10.48.0.0/16 -d 10.49.243.10/32 -p tcp -m comment --comment "default/router:1936-tcp cluster IP" -m tcp --dport 1936 -j KUBE-MARK-MASQ
< -A KUBE-SERVICES -d 10.49.243.10/32 -p tcp -m comment --comment "default/router:1936-tcp cluster IP" -m tcp --dport 1936 -j KUBE-SVC-4JCRTMMYZAAYMIJ2
< -A KUBE-SERVICES ! -s 10.48.0.0/16 -d 10.49.63.247/32 -p tcp -m comment --comment "kube-service-catalog/apiserver:secure cluster IP" -m tcp --dport 443 -j KUBE-MARK-MASQ
< -A KUBE-SERVICES -d 10.49.63.247/32 -p tcp -m comment --comment "kube-service-catalog/apiserver:secure cluster IP" -m tcp --dport 443 -j KUBE-SVC-52XAELSJYS7XYM5B
< -A KUBE-SERVICES ! -s 10.48.0.0/16 -d 10.49.62.91/32 -p tcp -m comment --comment "webapp/nginx-example: cluster IP" -m tcp --dport 80 -j KUBE-MARK-MASQ
< -A KUBE-SERVICES -d 10.49.62.91/32 -p tcp -m comment --comment "webapp/nginx-example: cluster IP" -m tcp --dport 80 -j KUBE-SVC-OVPIOQYLPH3A6XTA
< -A KUBE-SERVICES ! -s 10.48.0.0/16 -d 10.49.129.185/32 -p tcp -m comment --comment "kube-service-catalog/controller-manager:secure cluster IP" -m tcp --dport 443 -j KUBE-MARK-MASQ
< -A KUBE-SERVICES -d 10.49.129.185/32 -p tcp -m comment --comment "kube-service-catalog/controller-manager:secure cluster IP" -m tcp --dport 443 -j KUBE-SVC-5O6FMKGKTYBMPQWY
< -A KUBE-SERVICES ! -s 10.48.0.0/16 -d 10.49.170.41/32 -p tcp -m comment --comment "openshift-console/console:https cluster IP" -m tcp --dport 443 -j KUBE-MARK-MASQ
< -A KUBE-SERVICES -d 10.49.170.41/32 -p tcp -m comment --comment "openshift-console/console:https cluster IP" -m tcp --dport 443 -j KUBE-SVC-2O3SXCDVWWS7KYC5
178,179c156,157
< -A KUBE-SERVICES ! -s 10.48.0.0/16 -d 10.49.243.10/32 -p tcp -m comment --comment "default/router:80-tcp cluster IP" -m tcp --dport 80 -j KUBE-MARK-MASQ
< -A KUBE-SERVICES -d 10.49.243.10/32 -p tcp -m comment --comment "default/router:80-tcp cluster IP" -m tcp --dport 80 -j KUBE-SVC-GQKZAHCS5DTMHUQ6
---
> -A KUBE-SERVICES ! -s 10.48.0.0/16 -d 10.49.170.41/32 -p tcp -m comment --comment "openshift-console/console:https cluster IP" -m tcp --dport 443 -j KUBE-MARK-MASQ
> -A KUBE-SERVICES -d 10.49.170.41/32 -p tcp -m comment --comment "openshift-console/console:https cluster IP" -m tcp --dport 443 -j KUBE-SVC-2O3SXCDVWWS7KYC5
183a162,171
> -A KUBE-SERVICES ! -s 10.48.0.0/16 -d 10.49.243.10/32 -p tcp -m comment --comment "default/router:80-tcp cluster IP" -m tcp --dport 80 -j KUBE-MARK-MASQ
> -A KUBE-SERVICES -d 10.49.243.10/32 -p tcp -m comment --comment "default/router:80-tcp cluster IP" -m tcp --dport 80 -j KUBE-SVC-GQKZAHCS5DTMHUQ6
> -A KUBE-SERVICES ! -s 10.48.0.0/16 -d 10.49.243.10/32 -p tcp -m comment --comment "default/router:1936-tcp cluster IP" -m tcp --dport 1936 -j KUBE-MARK-MASQ
> -A KUBE-SERVICES -d 10.49.243.10/32 -p tcp -m comment --comment "default/router:1936-tcp cluster IP" -m tcp --dport 1936 -j KUBE-SVC-4JCRTMMYZAAYMIJ2
> -A KUBE-SERVICES ! -s 10.48.0.0/16 -d 10.49.63.247/32 -p tcp -m comment --comment "kube-service-catalog/apiserver:secure cluster IP" -m tcp --dport 443 -j KUBE-MARK-MASQ
> -A KUBE-SERVICES -d 10.49.63.247/32 -p tcp -m comment --comment "kube-service-catalog/apiserver:secure cluster IP" -m tcp --dport 443 -j KUBE-SVC-52XAELSJYS7XYM5B
> -A KUBE-SERVICES ! -s 10.48.0.0/16 -d 10.49.217.242/32 -p tcp -m comment --comment "default/registry-console:registry-console cluster IP" -m tcp --dport 9000 -j KUBE-MARK-MASQ
> -A KUBE-SERVICES -d 10.49.217.242/32 -p tcp -m comment --comment "default/registry-console:registry-console cluster IP" -m tcp --dport 9000 -j KUBE-SVC-DEGCXZMVXZMJS2KL
> -A KUBE-SERVICES ! -s 10.48.0.0/16 -d 10.49.129.185/32 -p tcp -m comment --comment "kube-service-catalog/controller-manager:secure cluster IP" -m tcp --dport 443 -j KUBE-MARK-MASQ
> -A KUBE-SERVICES -d 10.49.129.185/32 -p tcp -m comment --comment "kube-service-catalog/controller-manager:secure cluster IP" -m tcp --dport 443 -j KUBE-SVC-5O6FMKGKTYBMPQWY
200,202d187
< -A KUBE-SVC-OVPIOQYLPH3A6XTA -m comment --comment "webapp/nginx-example:" -m statistic --mode random --probability 0.33332999982 -j KUBE-SEP-A3FPCBMX64CTFHWT
< -A KUBE-SVC-OVPIOQYLPH3A6XTA -m comment --comment "webapp/nginx-example:" -m statistic --mode random --probability 0.50000000000 -j KUBE-SEP-5IC7UQEZWKI27EZG
< -A KUBE-SVC-OVPIOQYLPH3A6XTA -m comment --comment "webapp/nginx-example:" -j KUBE-SEP-74PAZBA2CEDRF737
