2c2
< # Generated by iptables-save v1.4.21 on Thu Sep 12 08:34:09 2019
---
> # Generated by iptables-save v1.4.21 on Thu Sep 12 08:01:59 2019
6c6
< :OUTPUT ACCEPT [62:6794]
---
> :OUTPUT ACCEPT [65:6518]
59c59
< # Generated by iptables-save v1.4.21 on Thu Sep 12 08:34:09 2019
---
> # Generated by iptables-save v1.4.21 on Thu Sep 12 08:01:59 2019
63,64c63,64
< :OUTPUT ACCEPT [0:0]
< :POSTROUTING ACCEPT [0:0]
---
> :OUTPUT ACCEPT [1:76]
> :POSTROUTING ACCEPT [1:76]
164,170d163
< -A KUBE-SERVICES ! -s 10.48.0.0/16 -d 10.49.196.27/32 -p tcp -m comment --comment "openshift-template-service-broker/apiserver: cluster IP" -m tcp --dport 443 -j KUBE-MARK-MASQ
< -A KUBE-SERVICES -d 10.49.196.27/32 -p tcp -m comment --comment "openshift-template-service-broker/apiserver: cluster IP" -m tcp --dport 443 -j KUBE-SVC-45FDQWGIHPUKH23I
< -A KUBE-SERVICES ! -s 10.48.0.0/16 -d 10.49.165.197/32 -p tcp -m comment --comment "webapp/nginx-example:web cluster IP" -m tcp --dport 80 -j KUBE-MARK-MASQ
< -A KUBE-SERVICES -d 10.49.165.197/32 -p tcp -m comment --comment "webapp/nginx-example:web cluster IP" -m tcp --dport 80 -j KUBE-SVC-QXDKH6JV64H73ZVF
< -A KUBE-SERVICES -d 10.16.1.193/32 -p tcp -m comment --comment "webapp/nginx-example:web external IP" -m tcp --dport 80 -j KUBE-MARK-MASQ
< -A KUBE-SERVICES -d 10.16.1.193/32 -p tcp -m comment --comment "webapp/nginx-example:web external IP" -m tcp --dport 80 -m physdev ! --physdev-is-in -m addrtype ! --src-type LOCAL -j KUBE-SVC-QXDKH6JV64H73ZVF
< -A KUBE-SERVICES -d 10.16.1.193/32 -p tcp -m comment --comment "webapp/nginx-example:web external IP" -m tcp --dport 80 -m addrtype --dst-type LOCAL -j KUBE-SVC-QXDKH6JV64H73ZVF
176a170,176
> -A KUBE-SERVICES ! -s 10.48.0.0/16 -d 10.49.196.27/32 -p tcp -m comment --comment "openshift-template-service-broker/apiserver: cluster IP" -m tcp --dport 443 -j KUBE-MARK-MASQ
> -A KUBE-SERVICES -d 10.49.196.27/32 -p tcp -m comment --comment "openshift-template-service-broker/apiserver: cluster IP" -m tcp --dport 443 -j KUBE-SVC-45FDQWGIHPUKH23I
> -A KUBE-SERVICES ! -s 10.48.0.0/16 -d 10.49.165.197/32 -p tcp -m comment --comment "webapp/nginx-example:web cluster IP" -m tcp --dport 80 -j KUBE-MARK-MASQ
> -A KUBE-SERVICES -d 10.49.165.197/32 -p tcp -m comment --comment "webapp/nginx-example:web cluster IP" -m tcp --dport 80 -j KUBE-SVC-QXDKH6JV64H73ZVF
> -A KUBE-SERVICES -d 172.31.0.1/32 -p tcp -m comment --comment "webapp/nginx-example:web external IP" -m tcp --dport 80 -j KUBE-MARK-MASQ
> -A KUBE-SERVICES -d 172.31.0.1/32 -p tcp -m comment --comment "webapp/nginx-example:web external IP" -m tcp --dport 80 -m physdev ! --physdev-is-in -m addrtype ! --src-type LOCAL -j KUBE-SVC-QXDKH6JV64H73ZVF
> -A KUBE-SERVICES -d 172.31.0.1/32 -p tcp -m comment --comment "webapp/nginx-example:web external IP" -m tcp --dport 80 -m addrtype --dst-type LOCAL -j KUBE-SVC-QXDKH6JV64H73ZVF
