2c2
< # Generated by iptables-save v1.4.21 on Sat Sep 21 10:35:39 2019
---
> # Generated by iptables-save v1.4.21 on Sat Sep 21 10:32:52 2019
6c6
< :OUTPUT ACCEPT [4051:1267856]
---
> :OUTPUT ACCEPT [3272:1011575]
66c66
< # Generated by iptables-save v1.4.21 on Sat Sep 21 10:35:39 2019
---
> # Generated by iptables-save v1.4.21 on Sat Sep 21 10:32:52 2019
68,71c68,71
< :PREROUTING ACCEPT [17:920]
< :INPUT ACCEPT [6:480]
< :OUTPUT ACCEPT [227:14484]
< :POSTROUTING ACCEPT [228:14544]
---
> :PREROUTING ACCEPT [17:900]
> :INPUT ACCEPT [5:420]
> :OUTPUT ACCEPT [189:12072]
> :POSTROUTING ACCEPT [189:12072]
152a153,154
> -A KUBE-SERVICES ! -s 10.48.0.0/16 -d 10.49.129.185/32 -p tcp -m comment --comment "kube-service-catalog/controller-manager:secure cluster IP" -m tcp --dport 443 -j KUBE-MARK-MASQ
> -A KUBE-SERVICES -d 10.49.129.185/32 -p tcp -m comment --comment "kube-service-catalog/controller-manager:secure cluster IP" -m tcp --dport 443 -j KUBE-SVC-5O6FMKGKTYBMPQWY
155,157d156
< -A KUBE-SERVICES -d 10.16.1.193/32 -p tcp -m comment --comment "webapp/nginx-example: external IP" -m tcp --dport 8080 -j KUBE-MARK-MASQ
< -A KUBE-SERVICES -d 10.16.1.193/32 -p tcp -m comment --comment "webapp/nginx-example: external IP" -m tcp --dport 8080 -m physdev ! --physdev-is-in -m addrtype ! --src-type LOCAL -j KUBE-SVC-OVPIOQYLPH3A6XTA
< -A KUBE-SERVICES -d 10.16.1.193/32 -p tcp -m comment --comment "webapp/nginx-example: external IP" -m tcp --dport 8080 -m addrtype --dst-type LOCAL -j KUBE-SVC-OVPIOQYLPH3A6XTA
164,165c163,164
< -A KUBE-SERVICES ! -s 10.48.0.0/16 -d 10.49.129.185/32 -p tcp -m comment --comment "kube-service-catalog/controller-manager:secure cluster IP" -m tcp --dport 443 -j KUBE-MARK-MASQ
< -A KUBE-SERVICES -d 10.49.129.185/32 -p tcp -m comment --comment "kube-service-catalog/controller-manager:secure cluster IP" -m tcp --dport 443 -j KUBE-SVC-5O6FMKGKTYBMPQWY
---
> -A KUBE-SERVICES ! -s 10.48.0.0/16 -d 10.49.170.41/32 -p tcp -m comment --comment "openshift-console/console:https cluster IP" -m tcp --dport 443 -j KUBE-MARK-MASQ
> -A KUBE-SERVICES -d 10.49.170.41/32 -p tcp -m comment --comment "openshift-console/console:https cluster IP" -m tcp --dport 443 -j KUBE-SVC-2O3SXCDVWWS7KYC5
174,175d172
< -A KUBE-SERVICES ! -s 10.48.0.0/16 -d 10.49.170.41/32 -p tcp -m comment --comment "openshift-console/console:https cluster IP" -m tcp --dport 443 -j KUBE-MARK-MASQ
< -A KUBE-SERVICES -d 10.49.170.41/32 -p tcp -m comment --comment "openshift-console/console:https cluster IP" -m tcp --dport 443 -j KUBE-SVC-2O3SXCDVWWS7KYC5
