2c2
< # Generated by iptables-save v1.4.21 on Thu Sep 12 08:01:54 2019
---
> # Generated by iptables-save v1.4.21 on Thu Sep 12 07:49:13 2019
6c6
< :OUTPUT ACCEPT [92:8986]
---
> :OUTPUT ACCEPT [115:13041]
58c58
< # Generated by iptables-save v1.4.21 on Thu Sep 12 08:01:54 2019
---
> # Generated by iptables-save v1.4.21 on Thu Sep 12 07:49:13 2019
60,63c60,63
< :PREROUTING ACCEPT [9:758]
< :INPUT ACCEPT [9:758]
< :OUTPUT ACCEPT [9:678]
< :POSTROUTING ACCEPT [9:678]
---
> :PREROUTING ACCEPT [7:570]
> :INPUT ACCEPT [7:570]
> :OUTPUT ACCEPT [6:450]
> :POSTROUTING ACCEPT [6:450]
79d78
< :KUBE-SEP-H5X7FQ26O4SFDOOU - [0:0]
85d83
< :KUBE-SEP-QPOJLESMI7J64X2B - [0:0]
103d100
< :KUBE-SVC-QXDKH6JV64H73ZVF - [0:0]
133,134d129
< -A KUBE-SEP-H5X7FQ26O4SFDOOU -s 10.48.21.14/32 -m comment --comment "webapp/nginx-example:web" -j KUBE-MARK-MASQ
< -A KUBE-SEP-H5X7FQ26O4SFDOOU -p tcp -m comment --comment "webapp/nginx-example:web" -m tcp -j DNAT --to-destination 10.48.21.14:8080
145,146d139
< -A KUBE-SEP-QPOJLESMI7J64X2B -s 10.48.23.6/32 -m comment --comment "webapp/nginx-example:web" -j KUBE-MARK-MASQ
< -A KUBE-SEP-QPOJLESMI7J64X2B -p tcp -m comment --comment "webapp/nginx-example:web" -m tcp -j DNAT --to-destination 10.48.23.6:8080
154a148,159
> -A KUBE-SERVICES ! -s 10.48.0.0/16 -d 10.49.0.1/32 -p udp -m comment --comment "default/kubernetes:dns cluster IP" -m udp --dport 53 -j KUBE-MARK-MASQ
> -A KUBE-SERVICES -d 10.49.0.1/32 -p udp -m comment --comment "default/kubernetes:dns cluster IP" -m udp --dport 53 -j KUBE-SVC-3VQ6B3MLH7E2SZT4
> -A KUBE-SERVICES ! -s 10.48.0.0/16 -d 10.49.170.41/32 -p tcp -m comment --comment "openshift-console/console:https cluster IP" -m tcp --dport 443 -j KUBE-MARK-MASQ
> -A KUBE-SERVICES -d 10.49.170.41/32 -p tcp -m comment --comment "openshift-console/console:https cluster IP" -m tcp --dport 443 -j KUBE-SVC-2O3SXCDVWWS7KYC5
> -A KUBE-SERVICES ! -s 10.48.0.0/16 -d 10.49.129.185/32 -p tcp -m comment --comment "kube-service-catalog/controller-manager:secure cluster IP" -m tcp --dport 443 -j KUBE-MARK-MASQ
> -A KUBE-SERVICES -d 10.49.129.185/32 -p tcp -m comment --comment "kube-service-catalog/controller-manager:secure cluster IP" -m tcp --dport 443 -j KUBE-SVC-5O6FMKGKTYBMPQWY
> -A KUBE-SERVICES ! -s 10.48.0.0/16 -d 10.49.52.222/32 -p tcp -m comment --comment "default/docker-registry:5000-tcp cluster IP" -m tcp --dport 5000 -j KUBE-MARK-MASQ
> -A KUBE-SERVICES -d 10.49.52.222/32 -p tcp -m comment --comment "default/docker-registry:5000-tcp cluster IP" -m tcp --dport 5000 -j KUBE-SVC-ECTPRXTXBM34L34Q
> -A KUBE-SERVICES ! -s 10.48.0.0/16 -d 10.49.243.10/32 -p tcp -m comment --comment "default/router:443-tcp cluster IP" -m tcp --dport 443 -j KUBE-MARK-MASQ
> -A KUBE-SERVICES -d 10.49.243.10/32 -p tcp -m comment --comment "default/router:443-tcp cluster IP" -m tcp --dport 443 -j KUBE-SVC-IKV43KYNCXS2W7KZ
> -A KUBE-SERVICES ! -s 10.48.0.0/16 -d 10.49.243.10/32 -p tcp -m comment --comment "default/router:1936-tcp cluster IP" -m tcp --dport 1936 -j KUBE-MARK-MASQ
> -A KUBE-SERVICES -d 10.49.243.10/32 -p tcp -m comment --comment "default/router:1936-tcp cluster IP" -m tcp --dport 1936 -j KUBE-SVC-4JCRTMMYZAAYMIJ2
167,183d171
< -A KUBE-SERVICES ! -s 10.48.0.0/16 -d 10.49.0.1/32 -p udp -m comment --comment "default/kubernetes:dns cluster IP" -m udp --dport 53 -j KUBE-MARK-MASQ
< -A KUBE-SERVICES -d 10.49.0.1/32 -p udp -m comment --comment "default/kubernetes:dns cluster IP" -m udp --dport 53 -j KUBE-SVC-3VQ6B3MLH7E2SZT4
< -A KUBE-SERVICES ! -s 10.48.0.0/16 -d 10.49.165.197/32 -p tcp -m comment --comment "webapp/nginx-example:web cluster IP" -m tcp --dport 80 -j KUBE-MARK-MASQ
< -A KUBE-SERVICES -d 10.49.165.197/32 -p tcp -m comment --comment "webapp/nginx-example:web cluster IP" -m tcp --dport 80 -j KUBE-SVC-QXDKH6JV64H73ZVF
< -A KUBE-SERVICES -d 172.31.0.1/32 -p tcp -m comment --comment "webapp/nginx-example:web external IP" -m tcp --dport 80 -j KUBE-MARK-MASQ
< -A KUBE-SERVICES -d 172.31.0.1/32 -p tcp -m comment --comment "webapp/nginx-example:web external IP" -m tcp --dport 80 -m physdev ! --physdev-is-in -m addrtype ! --src-type LOCAL -j KUBE-SVC-QXDKH6JV64H73ZVF
< -A KUBE-SERVICES -d 172.31.0.1/32 -p tcp -m comment --comment "webapp/nginx-example:web external IP" -m tcp --dport 80 -m addrtype --dst-type LOCAL -j KUBE-SVC-QXDKH6JV64H73ZVF
< -A KUBE-SERVICES ! -s 10.48.0.0/16 -d 10.49.129.185/32 -p tcp -m comment --comment "kube-service-catalog/controller-manager:secure cluster IP" -m tcp --dport 443 -j KUBE-MARK-MASQ
< -A KUBE-SERVICES -d 10.49.129.185/32 -p tcp -m comment --comment "kube-service-catalog/controller-manager:secure cluster IP" -m tcp --dport 443 -j KUBE-SVC-5O6FMKGKTYBMPQWY
< -A KUBE-SERVICES ! -s 10.48.0.0/16 -d 10.49.52.222/32 -p tcp -m comment --comment "default/docker-registry:5000-tcp cluster IP" -m tcp --dport 5000 -j KUBE-MARK-MASQ
< -A KUBE-SERVICES -d 10.49.52.222/32 -p tcp -m comment --comment "default/docker-registry:5000-tcp cluster IP" -m tcp --dport 5000 -j KUBE-SVC-ECTPRXTXBM34L34Q
< -A KUBE-SERVICES ! -s 10.48.0.0/16 -d 10.49.243.10/32 -p tcp -m comment --comment "default/router:443-tcp cluster IP" -m tcp --dport 443 -j KUBE-MARK-MASQ
< -A KUBE-SERVICES -d 10.49.243.10/32 -p tcp -m comment --comment "default/router:443-tcp cluster IP" -m tcp --dport 443 -j KUBE-SVC-IKV43KYNCXS2W7KZ
< -A KUBE-SERVICES ! -s 10.48.0.0/16 -d 10.49.243.10/32 -p tcp -m comment --comment "default/router:1936-tcp cluster IP" -m tcp --dport 1936 -j KUBE-MARK-MASQ
< -A KUBE-SERVICES -d 10.49.243.10/32 -p tcp -m comment --comment "default/router:1936-tcp cluster IP" -m tcp --dport 1936 -j KUBE-SVC-4JCRTMMYZAAYMIJ2
< -A KUBE-SERVICES ! -s 10.48.0.0/16 -d 10.49.170.41/32 -p tcp -m comment --comment "openshift-console/console:https cluster IP" -m tcp --dport 443 -j KUBE-MARK-MASQ
< -A KUBE-SERVICES -d 10.49.170.41/32 -p tcp -m comment --comment "openshift-console/console:https cluster IP" -m tcp --dport 443 -j KUBE-SVC-2O3SXCDVWWS7KYC5
201,202d188
< -A KUBE-SVC-QXDKH6JV64H73ZVF -m comment --comment "webapp/nginx-example:web" -m statistic --mode random --probability 0.50000000000 -j KUBE-SEP-H5X7FQ26O4SFDOOU
< -A KUBE-SVC-QXDKH6JV64H73ZVF -m comment --comment "webapp/nginx-example:web" -j KUBE-SEP-QPOJLESMI7J64X2B
