2c2
< # Generated by iptables-save v1.4.21 on Wed Sep 18 08:35:08 2019
---
> # Generated by iptables-save v1.4.21 on Wed Sep 18 08:28:56 2019
6c6
< :OUTPUT ACCEPT [219:21421]
---
> :OUTPUT ACCEPT [191:18249]
60c60
< # Generated by iptables-save v1.4.21 on Wed Sep 18 08:35:08 2019
---
> # Generated by iptables-save v1.4.21 on Wed Sep 18 08:28:56 2019
62,65c62,65
< :PREROUTING ACCEPT [37:2546]
< :INPUT ACCEPT [19:1826]
< :OUTPUT ACCEPT [42:3476]
< :POSTROUTING ACCEPT [42:3476]
---
> :PREROUTING ACCEPT [42:2258]
> :INPUT ACCEPT [13:1098]
> :OUTPUT ACCEPT [19:1338]
> :POSTROUTING ACCEPT [19:1338]
76,78d75
< :KUBE-SEP-5IC7UQEZWKI27EZG - [0:0]
< :KUBE-SEP-74PAZBA2CEDRF737 - [0:0]
< :KUBE-SEP-A3FPCBMX64CTFHWT - [0:0]
105d101
< :KUBE-SVC-OVPIOQYLPH3A6XTA - [0:0]
126,131d121
< -A KUBE-SEP-5IC7UQEZWKI27EZG -s 10.48.22.19/32 -m comment --comment "webapp/nginx-example:" -j KUBE-MARK-MASQ
< -A KUBE-SEP-5IC7UQEZWKI27EZG -p tcp -m comment --comment "webapp/nginx-example:" -m tcp -j DNAT --to-destination 10.48.22.19:8080
< -A KUBE-SEP-74PAZBA2CEDRF737 -s 10.48.23.14/32 -m comment --comment "webapp/nginx-example:" -j KUBE-MARK-MASQ
< -A KUBE-SEP-74PAZBA2CEDRF737 -p tcp -m comment --comment "webapp/nginx-example:" -m tcp -j DNAT --to-destination 10.48.23.14:8080
< -A KUBE-SEP-A3FPCBMX64CTFHWT -s 10.48.21.23/32 -m comment --comment "webapp/nginx-example:" -j KUBE-MARK-MASQ
< -A KUBE-SEP-A3FPCBMX64CTFHWT -p tcp -m comment --comment "webapp/nginx-example:" -m tcp -j DNAT --to-destination 10.48.21.23:8080
159a150,159
> -A KUBE-SERVICES ! -s 10.48.0.0/16 -d 10.49.63.247/32 -p tcp -m comment --comment "kube-service-catalog/apiserver:secure cluster IP" -m tcp --dport 443 -j KUBE-MARK-MASQ
> -A KUBE-SERVICES -d 10.49.63.247/32 -p tcp -m comment --comment "kube-service-catalog/apiserver:secure cluster IP" -m tcp --dport 443 -j KUBE-SVC-52XAELSJYS7XYM5B
> -A KUBE-SERVICES ! -s 10.48.0.0/16 -d 10.49.0.1/32 -p udp -m comment --comment "default/kubernetes:dns cluster IP" -m udp --dport 53 -j KUBE-MARK-MASQ
> -A KUBE-SERVICES -d 10.49.0.1/32 -p udp -m comment --comment "default/kubernetes:dns cluster IP" -m udp --dport 53 -j KUBE-SVC-3VQ6B3MLH7E2SZT4
> -A KUBE-SERVICES ! -s 10.48.0.0/16 -d 10.49.0.1/32 -p tcp -m comment --comment "default/kubernetes:dns-tcp cluster IP" -m tcp --dport 53 -j KUBE-MARK-MASQ
> -A KUBE-SERVICES -d 10.49.0.1/32 -p tcp -m comment --comment "default/kubernetes:dns-tcp cluster IP" -m tcp --dport 53 -j KUBE-SVC-BA6I5HTZKAAAJT56
> -A KUBE-SERVICES ! -s 10.48.0.0/16 -d 10.49.170.41/32 -p tcp -m comment --comment "openshift-console/console:https cluster IP" -m tcp --dport 443 -j KUBE-MARK-MASQ
> -A KUBE-SERVICES -d 10.49.170.41/32 -p tcp -m comment --comment "openshift-console/console:https cluster IP" -m tcp --dport 443 -j KUBE-SVC-2O3SXCDVWWS7KYC5
> -A KUBE-SERVICES ! -s 10.48.0.0/16 -d 10.49.243.10/32 -p tcp -m comment --comment "default/router:80-tcp cluster IP" -m tcp --dport 80 -j KUBE-MARK-MASQ
> -A KUBE-SERVICES -d 10.49.243.10/32 -p tcp -m comment --comment "default/router:80-tcp cluster IP" -m tcp --dport 80 -j KUBE-SVC-GQKZAHCS5DTMHUQ6
172,183d171
< -A KUBE-SERVICES ! -s 10.48.0.0/16 -d 10.49.63.247/32 -p tcp -m comment --comment "kube-service-catalog/apiserver:secure cluster IP" -m tcp --dport 443 -j KUBE-MARK-MASQ
< -A KUBE-SERVICES -d 10.49.63.247/32 -p tcp -m comment --comment "kube-service-catalog/apiserver:secure cluster IP" -m tcp --dport 443 -j KUBE-SVC-52XAELSJYS7XYM5B
< -A KUBE-SERVICES ! -s 10.48.0.0/16 -d 10.49.62.91/32 -p tcp -m comment --comment "webapp/nginx-example: cluster IP" -m tcp --dport 80 -j KUBE-MARK-MASQ
< -A KUBE-SERVICES -d 10.49.62.91/32 -p tcp -m comment --comment "webapp/nginx-example: cluster IP" -m tcp --dport 80 -j KUBE-SVC-OVPIOQYLPH3A6XTA
< -A KUBE-SERVICES ! -s 10.48.0.0/16 -d 10.49.0.1/32 -p udp -m comment --comment "default/kubernetes:dns cluster IP" -m udp --dport 53 -j KUBE-MARK-MASQ
< -A KUBE-SERVICES -d 10.49.0.1/32 -p udp -m comment --comment "default/kubernetes:dns cluster IP" -m udp --dport 53 -j KUBE-SVC-3VQ6B3MLH7E2SZT4
< -A KUBE-SERVICES ! -s 10.48.0.0/16 -d 10.49.0.1/32 -p tcp -m comment --comment "default/kubernetes:dns-tcp cluster IP" -m tcp --dport 53 -j KUBE-MARK-MASQ
< -A KUBE-SERVICES -d 10.49.0.1/32 -p tcp -m comment --comment "default/kubernetes:dns-tcp cluster IP" -m tcp --dport 53 -j KUBE-SVC-BA6I5HTZKAAAJT56
< -A KUBE-SERVICES ! -s 10.48.0.0/16 -d 10.49.170.41/32 -p tcp -m comment --comment "openshift-console/console:https cluster IP" -m tcp --dport 443 -j KUBE-MARK-MASQ
< -A KUBE-SERVICES -d 10.49.170.41/32 -p tcp -m comment --comment "openshift-console/console:https cluster IP" -m tcp --dport 443 -j KUBE-SVC-2O3SXCDVWWS7KYC5
< -A KUBE-SERVICES ! -s 10.48.0.0/16 -d 10.49.243.10/32 -p tcp -m comment --comment "default/router:80-tcp cluster IP" -m tcp --dport 80 -j KUBE-MARK-MASQ
< -A KUBE-SERVICES -d 10.49.243.10/32 -p tcp -m comment --comment "default/router:80-tcp cluster IP" -m tcp --dport 80 -j KUBE-SVC-GQKZAHCS5DTMHUQ6
200,202d187
< -A KUBE-SVC-OVPIOQYLPH3A6XTA -m comment --comment "webapp/nginx-example:" -m statistic --mode random --probability 0.33332999982 -j KUBE-SEP-A3FPCBMX64CTFHWT
< -A KUBE-SVC-OVPIOQYLPH3A6XTA -m comment --comment "webapp/nginx-example:" -m statistic --mode random --probability 0.50000000000 -j KUBE-SEP-5IC7UQEZWKI27EZG
< -A KUBE-SVC-OVPIOQYLPH3A6XTA -m comment --comment "webapp/nginx-example:" -j KUBE-SEP-74PAZBA2CEDRF737
