apiVersion: extensions/v1beta1
kind: Ingress
metadata:
  annotations:
    kubernetes.io/ingress.class: nginx
  name: nginx-ingress
  namespace: webapp
spec:
  rules:
  - host: webapp.lab.local
    http:
      paths:
      - backend:
          serviceName: nginx-example
          servicePort: 80
        path: /
