2c2
< # Generated by iptables-save v1.4.21 on Thu Sep 12 09:40:57 2019
---
> # Generated by iptables-save v1.4.21 on Thu Sep 12 08:34:09 2019
6c6
< :OUTPUT ACCEPT [41:3631]
---
> :OUTPUT ACCEPT [62:6794]
59c59
< # Generated by iptables-save v1.4.21 on Thu Sep 12 09:40:57 2019
---
> # Generated by iptables-save v1.4.21 on Thu Sep 12 08:34:09 2019
66d65
< :KUBE-HOSTPORTS - [0:0]
112d110
< -A PREROUTING -m comment --comment "kube hostport portals" -m addrtype --dst-type LOCAL -j KUBE-HOSTPORTS
117d114
< -A OUTPUT -m comment --comment "kube hostport portals" -m addrtype --dst-type LOCAL -j KUBE-HOSTPORTS
121d117
< -A POSTROUTING -s 127.0.0.0/8 -o tun0 -m comment --comment "SNAT for localhost access to hostports" -j MASQUERADE
160,161c156,163
< -A KUBE-SERVICES ! -s 10.48.0.0/16 -d 10.49.243.10/32 -p tcp -m comment --comment "default/router:1936-tcp cluster IP" -m tcp --dport 1936 -j KUBE-MARK-MASQ
< -A KUBE-SERVICES -d 10.49.243.10/32 -p tcp -m comment --comment "default/router:1936-tcp cluster IP" -m tcp --dport 1936 -j KUBE-SVC-4JCRTMMYZAAYMIJ2
---
> -A KUBE-SERVICES ! -s 10.48.0.0/16 -d 10.49.52.222/32 -p tcp -m comment --comment "default/docker-registry:5000-tcp cluster IP" -m tcp --dport 5000 -j KUBE-MARK-MASQ
> -A KUBE-SERVICES -d 10.49.52.222/32 -p tcp -m comment --comment "default/docker-registry:5000-tcp cluster IP" -m tcp --dport 5000 -j KUBE-SVC-ECTPRXTXBM34L34Q
> -A KUBE-SERVICES ! -s 10.48.0.0/16 -d 10.49.217.242/32 -p tcp -m comment --comment "default/registry-console:registry-console cluster IP" -m tcp --dport 9000 -j KUBE-MARK-MASQ
> -A KUBE-SERVICES -d 10.49.217.242/32 -p tcp -m comment --comment "default/registry-console:registry-console cluster IP" -m tcp --dport 9000 -j KUBE-SVC-DEGCXZMVXZMJS2KL
> -A KUBE-SERVICES ! -s 10.48.0.0/16 -d 10.49.0.1/32 -p tcp -m comment --comment "default/kubernetes:https cluster IP" -m tcp --dport 443 -j KUBE-MARK-MASQ
> -A KUBE-SERVICES -d 10.49.0.1/32 -p tcp -m comment --comment "default/kubernetes:https cluster IP" -m tcp --dport 443 -j KUBE-SVC-NPX46M4PTMTKRN6Y
> -A KUBE-SERVICES ! -s 10.48.0.0/16 -d 10.49.170.41/32 -p tcp -m comment --comment "openshift-console/console:https cluster IP" -m tcp --dport 443 -j KUBE-MARK-MASQ
> -A KUBE-SERVICES -d 10.49.170.41/32 -p tcp -m comment --comment "openshift-console/console:https cluster IP" -m tcp --dport 443 -j KUBE-SVC-2O3SXCDVWWS7KYC5
173,174c175,176
< -A KUBE-SERVICES ! -s 10.48.0.0/16 -d 10.49.129.185/32 -p tcp -m comment --comment "kube-service-catalog/controller-manager:secure cluster IP" -m tcp --dport 443 -j KUBE-MARK-MASQ
< -A KUBE-SERVICES -d 10.49.129.185/32 -p tcp -m comment --comment "kube-service-catalog/controller-manager:secure cluster IP" -m tcp --dport 443 -j KUBE-SVC-5O6FMKGKTYBMPQWY
---
> -A KUBE-SERVICES ! -s 10.48.0.0/16 -d 10.49.243.10/32 -p tcp -m comment --comment "default/router:1936-tcp cluster IP" -m tcp --dport 1936 -j KUBE-MARK-MASQ
> -A KUBE-SERVICES -d 10.49.243.10/32 -p tcp -m comment --comment "default/router:1936-tcp cluster IP" -m tcp --dport 1936 -j KUBE-SVC-4JCRTMMYZAAYMIJ2
181,188c183,184
< -A KUBE-SERVICES ! -s 10.48.0.0/16 -d 10.49.52.222/32 -p tcp -m comment --comment "default/docker-registry:5000-tcp cluster IP" -m tcp --dport 5000 -j KUBE-MARK-MASQ
< -A KUBE-SERVICES -d 10.49.52.222/32 -p tcp -m comment --comment "default/docker-registry:5000-tcp cluster IP" -m tcp --dport 5000 -j KUBE-SVC-ECTPRXTXBM34L34Q
< -A KUBE-SERVICES ! -s 10.48.0.0/16 -d 10.49.217.242/32 -p tcp -m comment --comment "default/registry-console:registry-console cluster IP" -m tcp --dport 9000 -j KUBE-MARK-MASQ
< -A KUBE-SERVICES -d 10.49.217.242/32 -p tcp -m comment --comment "default/registry-console:registry-console cluster IP" -m tcp --dport 9000 -j KUBE-SVC-DEGCXZMVXZMJS2KL
< -A KUBE-SERVICES ! -s 10.48.0.0/16 -d 10.49.0.1/32 -p tcp -m comment --comment "default/kubernetes:https cluster IP" -m tcp --dport 443 -j KUBE-MARK-MASQ
< -A KUBE-SERVICES -d 10.49.0.1/32 -p tcp -m comment --comment "default/kubernetes:https cluster IP" -m tcp --dport 443 -j KUBE-SVC-NPX46M4PTMTKRN6Y
< -A KUBE-SERVICES ! -s 10.48.0.0/16 -d 10.49.170.41/32 -p tcp -m comment --comment "openshift-console/console:https cluster IP" -m tcp --dport 443 -j KUBE-MARK-MASQ
< -A KUBE-SERVICES -d 10.49.170.41/32 -p tcp -m comment --comment "openshift-console/console:https cluster IP" -m tcp --dport 443 -j KUBE-SVC-2O3SXCDVWWS7KYC5
---
> -A KUBE-SERVICES ! -s 10.48.0.0/16 -d 10.49.129.185/32 -p tcp -m comment --comment "kube-service-catalog/controller-manager:secure cluster IP" -m tcp --dport 443 -j KUBE-MARK-MASQ
> -A KUBE-SERVICES -d 10.49.129.185/32 -p tcp -m comment --comment "kube-service-catalog/controller-manager:secure cluster IP" -m tcp --dport 443 -j KUBE-SVC-5O6FMKGKTYBMPQWY
