node21.lab.local | SUCCESS | rc=0 >>
# Generated by iptables-save v1.4.21 on Thu Sep 12 08:34:06 2019
*filter
:INPUT ACCEPT [0:0]
:FORWARD DROP [0:0]
:OUTPUT ACCEPT [120:10523]
:DOCKER - [0:0]
:DOCKER-ISOLATION - [0:0]
:KUBE-EXTERNAL-SERVICES - [0:0]
:KUBE-FIREWALL - [0:0]
:KUBE-FORWARD - [0:0]
:KUBE-NODEPORT-NON-LOCAL - [0:0]
:KUBE-SERVICES - [0:0]
:OPENSHIFT-ADMIN-OUTPUT-RULES - [0:0]
:OPENSHIFT-FIREWALL-ALLOW - [0:0]
:OPENSHIFT-FIREWALL-FORWARD - [0:0]
:OS_FIREWALL_ALLOW - [0:0]
-A INPUT -m conntrack --ctstate NEW -m comment --comment "kubernetes externally-visible service portals" -j KUBE-EXTERNAL-SERVICES
-A INPUT -m comment --comment "Ensure that non-local NodePort traffic can flow" -j KUBE-NODEPORT-NON-LOCAL
-A INPUT -m comment --comment "firewall overrides" -j OPENSHIFT-FIREWALL-ALLOW
-A INPUT -j KUBE-FIREWALL
-A INPUT -m state --state RELATED,ESTABLISHED -j ACCEPT
-A INPUT -p icmp -j ACCEPT
-A INPUT -i lo -j ACCEPT
-A INPUT -p tcp -m state --state NEW -m tcp --dport 22 -j ACCEPT
-A INPUT -j OS_FIREWALL_ALLOW
-A INPUT -j REJECT --reject-with icmp-host-prohibited
-A FORWARD -m comment --comment "kubernetes forwarding rules" -j KUBE-FORWARD
-A FORWARD -i tun0 ! -o tun0 -m comment --comment "administrator overrides" -j OPENSHIFT-ADMIN-OUTPUT-RULES
-A FORWARD -m comment --comment "firewall overrides" -j OPENSHIFT-FIREWALL-FORWARD
-A FORWARD -j DOCKER-ISOLATION
-A FORWARD -o docker0 -j DOCKER
-A FORWARD -o docker0 -m conntrack --ctstate RELATED,ESTABLISHED -j ACCEPT
-A FORWARD -i docker0 ! -o docker0 -j ACCEPT
-A FORWARD -i docker0 -o docker0 -j ACCEPT
-A FORWARD -j REJECT --reject-with icmp-host-prohibited
-A OUTPUT -m conntrack --ctstate NEW -m comment --comment "kubernetes service portals" -j KUBE-SERVICES
-A OUTPUT -j KUBE-FIREWALL
-A DOCKER-ISOLATION -j RETURN
-A KUBE-FIREWALL -m comment --comment "kubernetes firewall for dropping marked packets" -m mark --mark 0x8000/0x8000 -j DROP
-A KUBE-FORWARD -m comment --comment "kubernetes forwarding rules" -m mark --mark 0x1/0x1 -j ACCEPT
-A KUBE-FORWARD -s 10.48.0.0/16 -m comment --comment "kubernetes forwarding conntrack pod source rule" -m conntrack --ctstate RELATED,ESTABLISHED -j ACCEPT
-A KUBE-FORWARD -d 10.48.0.0/16 -m comment --comment "kubernetes forwarding conntrack pod destination rule" -m conntrack --ctstate RELATED,ESTABLISHED -j ACCEPT
-A KUBE-SERVICES -d 10.49.135.255/32 -p tcp -m comment --comment "openshift-web-console/webconsole:https has no endpoints" -m tcp --dport 443 -j REJECT --reject-with icmp-port-unreachable
-A OPENSHIFT-FIREWALL-ALLOW -p udp -m udp --dport 4789 -m comment --comment "VXLAN incoming" -j ACCEPT
-A OPENSHIFT-FIREWALL-ALLOW -i tun0 -m comment --comment "from SDN to localhost" -j ACCEPT
-A OPENSHIFT-FIREWALL-ALLOW -i docker0 -m comment --comment "from docker to localhost" -j ACCEPT
-A OPENSHIFT-FIREWALL-FORWARD -s 10.48.0.0/16 -m comment --comment "attempted resend after connection close" -m conntrack --ctstate INVALID -j DROP
-A OPENSHIFT-FIREWALL-FORWARD -d 10.48.0.0/16 -m comment --comment "forward traffic from SDN" -j ACCEPT
-A OPENSHIFT-FIREWALL-FORWARD -s 10.48.0.0/16 -m comment --comment "forward traffic to SDN" -j ACCEPT
-A OS_FIREWALL_ALLOW -p tcp -m state --state NEW -m tcp --dport 10250 -j ACCEPT
-A OS_FIREWALL_ALLOW -p tcp -m state --state NEW -m tcp --dport 10256 -j ACCEPT
-A OS_FIREWALL_ALLOW -p tcp -m state --state NEW -m tcp --dport 80 -j ACCEPT
-A OS_FIREWALL_ALLOW -p tcp -m state --state NEW -m tcp --dport 443 -j ACCEPT
-A OS_FIREWALL_ALLOW -p udp -m state --state NEW -m udp --dport 4789 -j ACCEPT
-A OS_FIREWALL_ALLOW -p tcp -m state --state NEW -m tcp --dport 9000:10000 -j ACCEPT
COMMIT
# Generated by iptables-save v1.4.21 on Thu Sep 12 08:34:06 2019
*nat
:PREROUTING ACCEPT [0:0]
:INPUT ACCEPT [0:0]
:OUTPUT ACCEPT [6:360]
:POSTROUTING ACCEPT [6:360]
:DOCKER - [0:0]
:KUBE-HOSTPORTS - [0:0]
:KUBE-MARK-DROP - [0:0]
:KUBE-MARK-MASQ - [0:0]
:KUBE-NODEPORT-CONTAINER - [0:0]
:KUBE-NODEPORT-HOST - [0:0]
:KUBE-NODEPORTS - [0:0]
:KUBE-PORTALS-CONTAINER - [0:0]
:KUBE-PORTALS-HOST - [0:0]
:KUBE-POSTROUTING - [0:0]
:KUBE-SEP-2SH26NX4J66FWLCS - [0:0]
:KUBE-SEP-AK5JPMMOCDLUJOY5 - [0:0]
:KUBE-SEP-AKMTEN45LHCIBFBX - [0:0]
:KUBE-SEP-AP4OZXIVVYQPJ5MW - [0:0]
:KUBE-SEP-CIFYOCUMPGQ5HUW5 - [0:0]
:KUBE-SEP-CYVQYEKDHXLX5NIP - [0:0]
:KUBE-SEP-H5X7FQ26O4SFDOOU - [0:0]
:KUBE-SEP-JMWHSNBMDWQVTS3Y - [0:0]
:KUBE-SEP-K6QNCYU3KU3BC2ZO - [0:0]
:KUBE-SEP-LKYAE7TYAAGO6VEY - [0:0]
:KUBE-SEP-LRVCDZWUECTGTBOY - [0:0]
:KUBE-SEP-OWQGM45O66S25VKX - [0:0]
:KUBE-SEP-QPOJLESMI7J64X2B - [0:0]
:KUBE-SEP-RRTME5QU6YA2T6AU - [0:0]
:KUBE-SEP-RWM6AMT4Z5KANDFF - [0:0]
:KUBE-SEP-RXARTQEEYG6DDTYV - [0:0]
:KUBE-SEP-S43ADKRLQR4IUHW6 - [0:0]
:KUBE-SERVICES - [0:0]
:KUBE-SVC-2O3SXCDVWWS7KYC5 - [0:0]
:KUBE-SVC-3VQ6B3MLH7E2SZT4 - [0:0]
:KUBE-SVC-45FDQWGIHPUKH23I - [0:0]
:KUBE-SVC-4JCRTMMYZAAYMIJ2 - [0:0]
:KUBE-SVC-52XAELSJYS7XYM5B - [0:0]
:KUBE-SVC-5O6FMKGKTYBMPQWY - [0:0]
:KUBE-SVC-BA6I5HTZKAAAJT56 - [0:0]
:KUBE-SVC-DEGCXZMVXZMJS2KL - [0:0]
:KUBE-SVC-ECTPRXTXBM34L34Q - [0:0]
:KUBE-SVC-GQKZAHCS5DTMHUQ6 - [0:0]
:KUBE-SVC-IKV43KYNCXS2W7KZ - [0:0]
:KUBE-SVC-NPX46M4PTMTKRN6Y - [0:0]
:KUBE-SVC-QXDKH6JV64H73ZVF - [0:0]
:OPENSHIFT-MASQUERADE - [0:0]
:OPENSHIFT-MASQUERADE-2 - [0:0]
-A PREROUTING -m comment --comment "kubernetes service portals" -j KUBE-SERVICES
-A PREROUTING -m comment --comment "handle ClusterIPs; NOTE: this must be before the NodePort rules" -j KUBE-PORTALS-CONTAINER
-A PREROUTING -m addrtype --dst-type LOCAL -j DOCKER
-A PREROUTING -m addrtype --dst-type LOCAL -m comment --comment "handle service NodePorts; NOTE: this must be the last rule in the chain" -j KUBE-NODEPORT-CONTAINER
-A PREROUTING -m comment --comment "kube hostport portals" -m addrtype --dst-type LOCAL -j KUBE-HOSTPORTS
-A OUTPUT -m comment --comment "kubernetes service portals" -j KUBE-SERVICES
-A OUTPUT -m comment --comment "handle ClusterIPs; NOTE: this must be before the NodePort rules" -j KUBE-PORTALS-HOST
-A OUTPUT ! -d 127.0.0.0/8 -m addrtype --dst-type LOCAL -j DOCKER
-A OUTPUT -m addrtype --dst-type LOCAL -m comment --comment "handle service NodePorts; NOTE: this must be the last rule in the chain" -j KUBE-NODEPORT-HOST
-A OUTPUT -m comment --comment "kube hostport portals" -m addrtype --dst-type LOCAL -j KUBE-HOSTPORTS
-A POSTROUTING -m comment --comment "rules for masquerading OpenShift traffic" -j OPENSHIFT-MASQUERADE
-A POSTROUTING -m comment --comment "kubernetes postrouting rules" -j KUBE-POSTROUTING
-A POSTROUTING -s 172.17.0.0/16 ! -o docker0 -j MASQUERADE
-A POSTROUTING -s 127.0.0.0/8 -o tun0 -m comment --comment "SNAT for localhost access to hostports" -j MASQUERADE
-A DOCKER -i docker0 -j RETURN
-A KUBE-MARK-DROP -j MARK --set-xmark 0x8000/0x8000
-A KUBE-MARK-MASQ -j MARK --set-xmark 0x1/0x1
-A KUBE-POSTROUTING -m comment --comment "kubernetes service traffic requiring SNAT" -m mark --mark 0x1/0x1 -j MASQUERADE
-A KUBE-SEP-2SH26NX4J66FWLCS -s 10.48.11.37/32 -m comment --comment "kube-service-catalog/controller-manager:secure" -j KUBE-MARK-MASQ
-A KUBE-SEP-2SH26NX4J66FWLCS -p tcp -m comment --comment "kube-service-catalog/controller-manager:secure" -m tcp -j DNAT --to-destination 10.48.11.37:6443
-A KUBE-SEP-AK5JPMMOCDLUJOY5 -s 10.16.1.11/32 -m comment --comment "default/kubernetes:https" -j KUBE-MARK-MASQ
-A KUBE-SEP-AK5JPMMOCDLUJOY5 -p tcp -m comment --comment "default/kubernetes:https" -m tcp -j DNAT --to-destination 10.16.1.11:8443
-A KUBE-SEP-AKMTEN45LHCIBFBX -s 10.16.1.17/32 -m comment --comment "default/router:443-tcp" -j KUBE-MARK-MASQ
-A KUBE-SEP-AKMTEN45LHCIBFBX -p tcp -m comment --comment "default/router:443-tcp" -m tcp -j DNAT --to-destination 10.16.1.17:443
-A KUBE-SEP-AP4OZXIVVYQPJ5MW -s 10.16.1.17/32 -m comment --comment "default/router:80-tcp" -j KUBE-MARK-MASQ
-A KUBE-SEP-AP4OZXIVVYQPJ5MW -p tcp -m comment --comment "default/router:80-tcp" -m tcp -j DNAT --to-destination 10.16.1.17:80
-A KUBE-SEP-CIFYOCUMPGQ5HUW5 -s 10.16.1.18/32 -m comment --comment "default/router:443-tcp" -j KUBE-MARK-MASQ
-A KUBE-SEP-CIFYOCUMPGQ5HUW5 -p tcp -m comment --comment "default/router:443-tcp" -m tcp -j DNAT --to-destination 10.16.1.18:443
-A KUBE-SEP-CYVQYEKDHXLX5NIP -s 10.16.1.18/32 -m comment --comment "default/router:1936-tcp" -j KUBE-MARK-MASQ
-A KUBE-SEP-CYVQYEKDHXLX5NIP -p tcp -m comment --comment "default/router:1936-tcp" -m tcp -j DNAT --to-destination 10.16.1.18:1936
-A KUBE-SEP-H5X7FQ26O4SFDOOU -s 10.48.21.14/32 -m comment --comment "webapp/nginx-example:web" -j KUBE-MARK-MASQ
-A KUBE-SEP-H5X7FQ26O4SFDOOU -p tcp -m comment --comment "webapp/nginx-example:web" -m tcp -j DNAT --to-destination 10.48.21.14:8080
-A KUBE-SEP-JMWHSNBMDWQVTS3Y -s 10.16.1.11/32 -m comment --comment "default/kubernetes:dns-tcp" -j KUBE-MARK-MASQ
-A KUBE-SEP-JMWHSNBMDWQVTS3Y -p tcp -m comment --comment "default/kubernetes:dns-tcp" -m tcp -j DNAT --to-destination 10.16.1.11:8053
-A KUBE-SEP-K6QNCYU3KU3BC2ZO -s 10.16.1.17/32 -m comment --comment "default/router:1936-tcp" -j KUBE-MARK-MASQ
-A KUBE-SEP-K6QNCYU3KU3BC2ZO -p tcp -m comment --comment "default/router:1936-tcp" -m tcp -j DNAT --to-destination 10.16.1.17:1936
-A KUBE-SEP-LKYAE7TYAAGO6VEY -s 10.48.17.8/32 -m comment --comment "default/docker-registry:5000-tcp" -j KUBE-MARK-MASQ
-A KUBE-SEP-LKYAE7TYAAGO6VEY -p tcp -m comment --comment "default/docker-registry:5000-tcp" -m recent --set --name KUBE-SEP-LKYAE7TYAAGO6VEY --mask 255.255.255.255 --rsource -m tcp -j DNAT --to-destination 10.48.17.8:5000
-A KUBE-SEP-LRVCDZWUECTGTBOY -s 10.48.11.38/32 -m comment --comment "openshift-template-service-broker/apiserver:" -j KUBE-MARK-MASQ
-A KUBE-SEP-LRVCDZWUECTGTBOY -p tcp -m comment --comment "openshift-template-service-broker/apiserver:" -m tcp -j DNAT --to-destination 10.48.11.38:8443
-A KUBE-SEP-OWQGM45O66S25VKX -s 10.48.11.36/32 -m comment --comment "openshift-console/console:https" -j KUBE-MARK-MASQ
-A KUBE-SEP-OWQGM45O66S25VKX -p tcp -m comment --comment "openshift-console/console:https" -m tcp -j DNAT --to-destination 10.48.11.36:8443
-A KUBE-SEP-QPOJLESMI7J64X2B -s 10.48.23.6/32 -m comment --comment "webapp/nginx-example:web" -j KUBE-MARK-MASQ
-A KUBE-SEP-QPOJLESMI7J64X2B -p tcp -m comment --comment "webapp/nginx-example:web" -m tcp -j DNAT --to-destination 10.48.23.6:8080
-A KUBE-SEP-RRTME5QU6YA2T6AU -s 10.48.11.34/32 -m comment --comment "kube-service-catalog/apiserver:secure" -j KUBE-MARK-MASQ
-A KUBE-SEP-RRTME5QU6YA2T6AU -p tcp -m comment --comment "kube-service-catalog/apiserver:secure" -m tcp -j DNAT --to-destination 10.48.11.34:6443
-A KUBE-SEP-RWM6AMT4Z5KANDFF -s 10.16.1.11/32 -m comment --comment "default/kubernetes:dns" -j KUBE-MARK-MASQ
-A KUBE-SEP-RWM6AMT4Z5KANDFF -p udp -m comment --comment "default/kubernetes:dns" -m udp -j DNAT --to-destination 10.16.1.11:8053
-A KUBE-SEP-RXARTQEEYG6DDTYV -s 10.16.1.18/32 -m comment --comment "default/router:80-tcp" -j KUBE-MARK-MASQ
-A KUBE-SEP-RXARTQEEYG6DDTYV -p tcp -m comment --comment "default/router:80-tcp" -m tcp -j DNAT --to-destination 10.16.1.18:80
-A KUBE-SEP-S43ADKRLQR4IUHW6 -s 10.48.11.35/32 -m comment --comment "default/registry-console:registry-console" -j KUBE-MARK-MASQ
-A KUBE-SEP-S43ADKRLQR4IUHW6 -p tcp -m comment --comment "default/registry-console:registry-console" -m tcp -j DNAT --to-destination 10.48.11.35:9090
-A KUBE-SERVICES ! -s 10.48.0.0/16 -d 10.49.243.10/32 -p tcp -m comment --comment "default/router:80-tcp cluster IP" -m tcp --dport 80 -j KUBE-MARK-MASQ
-A KUBE-SERVICES -d 10.49.243.10/32 -p tcp -m comment --comment "default/router:80-tcp cluster IP" -m tcp --dport 80 -j KUBE-SVC-GQKZAHCS5DTMHUQ6
-A KUBE-SERVICES ! -s 10.48.0.0/16 -d 10.49.196.27/32 -p tcp -m comment --comment "openshift-template-service-broker/apiserver: cluster IP" -m tcp --dport 443 -j KUBE-MARK-MASQ
-A KUBE-SERVICES -d 10.49.196.27/32 -p tcp -m comment --comment "openshift-template-service-broker/apiserver: cluster IP" -m tcp --dport 443 -j KUBE-SVC-45FDQWGIHPUKH23I
-A KUBE-SERVICES ! -s 10.48.0.0/16 -d 10.49.63.247/32 -p tcp -m comment --comment "kube-service-catalog/apiserver:secure cluster IP" -m tcp --dport 443 -j KUBE-MARK-MASQ
-A KUBE-SERVICES -d 10.49.63.247/32 -p tcp -m comment --comment "kube-service-catalog/apiserver:secure cluster IP" -m tcp --dport 443 -j KUBE-SVC-52XAELSJYS7XYM5B
-A KUBE-SERVICES ! -s 10.48.0.0/16 -d 10.49.129.185/32 -p tcp -m comment --comment "kube-service-catalog/controller-manager:secure cluster IP" -m tcp --dport 443 -j KUBE-MARK-MASQ
-A KUBE-SERVICES -d 10.49.129.185/32 -p tcp -m comment --comment "kube-service-catalog/controller-manager:secure cluster IP" -m tcp --dport 443 -j KUBE-SVC-5O6FMKGKTYBMPQWY
-A KUBE-SERVICES ! -s 10.48.0.0/16 -d 10.49.217.242/32 -p tcp -m comment --comment "default/registry-console:registry-console cluster IP" -m tcp --dport 9000 -j KUBE-MARK-MASQ
-A KUBE-SERVICES -d 10.49.217.242/32 -p tcp -m comment --comment "default/registry-console:registry-console cluster IP" -m tcp --dport 9000 -j KUBE-SVC-DEGCXZMVXZMJS2KL
-A KUBE-SERVICES ! -s 10.48.0.0/16 -d 10.49.243.10/32 -p tcp -m comment --comment "default/router:1936-tcp cluster IP" -m tcp --dport 1936 -j KUBE-MARK-MASQ
-A KUBE-SERVICES -d 10.49.243.10/32 -p tcp -m comment --comment "default/router:1936-tcp cluster IP" -m tcp --dport 1936 -j KUBE-SVC-4JCRTMMYZAAYMIJ2
-A KUBE-SERVICES ! -s 10.48.0.0/16 -d 10.49.170.41/32 -p tcp -m comment --comment "openshift-console/console:https cluster IP" -m tcp --dport 443 -j KUBE-MARK-MASQ
-A KUBE-SERVICES -d 10.49.170.41/32 -p tcp -m comment --comment "openshift-console/console:https cluster IP" -m tcp --dport 443 -j KUBE-SVC-2O3SXCDVWWS7KYC5
-A KUBE-SERVICES ! -s 10.48.0.0/16 -d 10.49.0.1/32 -p tcp -m comment --comment "default/kubernetes:https cluster IP" -m tcp --dport 443 -j KUBE-MARK-MASQ
-A KUBE-SERVICES -d 10.49.0.1/32 -p tcp -m comment --comment "default/kubernetes:https cluster IP" -m tcp --dport 443 -j KUBE-SVC-NPX46M4PTMTKRN6Y
-A KUBE-SERVICES ! -s 10.48.0.0/16 -d 10.49.0.1/32 -p udp -m comment --comment "default/kubernetes:dns cluster IP" -m udp --dport 53 -j KUBE-MARK-MASQ
-A KUBE-SERVICES -d 10.49.0.1/32 -p udp -m comment --comment "default/kubernetes:dns cluster IP" -m udp --dport 53 -j KUBE-SVC-3VQ6B3MLH7E2SZT4
-A KUBE-SERVICES ! -s 10.48.0.0/16 -d 10.49.165.197/32 -p tcp -m comment --comment "webapp/nginx-example:web cluster IP" -m tcp --dport 80 -j KUBE-MARK-MASQ
-A KUBE-SERVICES -d 10.49.165.197/32 -p tcp -m comment --comment "webapp/nginx-example:web cluster IP" -m tcp --dport 80 -j KUBE-SVC-QXDKH6JV64H73ZVF
-A KUBE-SERVICES -d 10.16.1.193/32 -p tcp -m comment --comment "webapp/nginx-example:web external IP" -m tcp --dport 80 -j KUBE-MARK-MASQ
-A KUBE-SERVICES -d 10.16.1.193/32 -p tcp -m comment --comment "webapp/nginx-example:web external IP" -m tcp --dport 80 -m physdev ! --physdev-is-in -m addrtype ! --src-type LOCAL -j KUBE-SVC-QXDKH6JV64H73ZVF
-A KUBE-SERVICES -d 10.16.1.193/32 -p tcp -m comment --comment "webapp/nginx-example:web external IP" -m tcp --dport 80 -m addrtype --dst-type LOCAL -j KUBE-SVC-QXDKH6JV64H73ZVF
-A KUBE-SERVICES ! -s 10.48.0.0/16 -d 10.49.0.1/32 -p tcp -m comment --comment "default/kubernetes:dns-tcp cluster IP" -m tcp --dport 53 -j KUBE-MARK-MASQ
-A KUBE-SERVICES -d 10.49.0.1/32 -p tcp -m comment --comment "default/kubernetes:dns-tcp cluster IP" -m tcp --dport 53 -j KUBE-SVC-BA6I5HTZKAAAJT56
-A KUBE-SERVICES ! -s 10.48.0.0/16 -d 10.49.243.10/32 -p tcp -m comment --comment "default/router:443-tcp cluster IP" -m tcp --dport 443 -j KUBE-MARK-MASQ
-A KUBE-SERVICES -d 10.49.243.10/32 -p tcp -m comment --comment "default/router:443-tcp cluster IP" -m tcp --dport 443 -j KUBE-SVC-IKV43KYNCXS2W7KZ
-A KUBE-SERVICES ! -s 10.48.0.0/16 -d 10.49.52.222/32 -p tcp -m comment --comment "default/docker-registry:5000-tcp cluster IP" -m tcp --dport 5000 -j KUBE-MARK-MASQ
-A KUBE-SERVICES -d 10.49.52.222/32 -p tcp -m comment --comment "default/docker-registry:5000-tcp cluster IP" -m tcp --dport 5000 -j KUBE-SVC-ECTPRXTXBM34L34Q
-A KUBE-SERVICES -m comment --comment "kubernetes service nodeports; NOTE: this must be the last rule in this chain" -m addrtype --dst-type LOCAL -j KUBE-NODEPORTS
-A KUBE-SVC-2O3SXCDVWWS7KYC5 -m comment --comment "openshift-console/console:https" -j KUBE-SEP-OWQGM45O66S25VKX
-A KUBE-SVC-3VQ6B3MLH7E2SZT4 -m comment --comment "default/kubernetes:dns" -j KUBE-SEP-RWM6AMT4Z5KANDFF
-A KUBE-SVC-45FDQWGIHPUKH23I -m comment --comment "openshift-template-service-broker/apiserver:" -j KUBE-SEP-LRVCDZWUECTGTBOY
-A KUBE-SVC-4JCRTMMYZAAYMIJ2 -m comment --comment "default/router:1936-tcp" -m statistic --mode random --probability 0.50000000000 -j KUBE-SEP-K6QNCYU3KU3BC2ZO
-A KUBE-SVC-4JCRTMMYZAAYMIJ2 -m comment --comment "default/router:1936-tcp" -j KUBE-SEP-CYVQYEKDHXLX5NIP
-A KUBE-SVC-52XAELSJYS7XYM5B -m comment --comment "kube-service-catalog/apiserver:secure" -j KUBE-SEP-RRTME5QU6YA2T6AU
-A KUBE-SVC-5O6FMKGKTYBMPQWY -m comment --comment "kube-service-catalog/controller-manager:secure" -j KUBE-SEP-2SH26NX4J66FWLCS
-A KUBE-SVC-BA6I5HTZKAAAJT56 -m comment --comment "default/kubernetes:dns-tcp" -j KUBE-SEP-JMWHSNBMDWQVTS3Y
-A KUBE-SVC-DEGCXZMVXZMJS2KL -m comment --comment "default/registry-console:registry-console" -j KUBE-SEP-S43ADKRLQR4IUHW6
-A KUBE-SVC-ECTPRXTXBM34L34Q -m comment --comment "default/docker-registry:5000-tcp" -m recent --rcheck --seconds 10800 --reap --name KUBE-SEP-LKYAE7TYAAGO6VEY --mask 255.255.255.255 --rsource -j KUBE-SEP-LKYAE7TYAAGO6VEY
-A KUBE-SVC-ECTPRXTXBM34L34Q -m comment --comment "default/docker-registry:5000-tcp" -j KUBE-SEP-LKYAE7TYAAGO6VEY
-A KUBE-SVC-GQKZAHCS5DTMHUQ6 -m comment --comment "default/router:80-tcp" -m statistic --mode random --probability 0.50000000000 -j KUBE-SEP-AP4OZXIVVYQPJ5MW
-A KUBE-SVC-GQKZAHCS5DTMHUQ6 -m comment --comment "default/router:80-tcp" -j KUBE-SEP-RXARTQEEYG6DDTYV
-A KUBE-SVC-IKV43KYNCXS2W7KZ -m comment --comment "default/router:443-tcp" -m statistic --mode random --probability 0.50000000000 -j KUBE-SEP-AKMTEN45LHCIBFBX
-A KUBE-SVC-IKV43KYNCXS2W7KZ -m comment --comment "default/router:443-tcp" -j KUBE-SEP-CIFYOCUMPGQ5HUW5
-A KUBE-SVC-NPX46M4PTMTKRN6Y -m comment --comment "default/kubernetes:https" -j KUBE-SEP-AK5JPMMOCDLUJOY5
-A KUBE-SVC-QXDKH6JV64H73ZVF -m comment --comment "webapp/nginx-example:web" -m statistic --mode random --probability 0.50000000000 -j KUBE-SEP-H5X7FQ26O4SFDOOU
-A KUBE-SVC-QXDKH6JV64H73ZVF -m comment --comment "webapp/nginx-example:web" -j KUBE-SEP-QPOJLESMI7J64X2B
-A OPENSHIFT-MASQUERADE -m mark --mark 0x1/0x1 -j RETURN
-A OPENSHIFT-MASQUERADE -s 10.48.0.0/16 -m comment --comment "masquerade pod-to-external traffic" -j OPENSHIFT-MASQUERADE-2
-A OPENSHIFT-MASQUERADE-2 -d 10.48.0.0/16 -m comment --comment "masquerade pod-to-external traffic" -j RETURN
-A OPENSHIFT-MASQUERADE-2 -j MASQUERADE
COMMIT
